digraph G {
fontname = "Bitstream Vera Sans"
fontsize = 8

overlap=false;

compound=true;    

node [
  fontname = "Bitstream Vera Sans"
  fontsize = 8
  shape = "record"
]

edge [
  fontname = "Bitstream Vera Sans"
  fontsize = 8
  mode="ipsep"            
]


DDI4_AuthorizationSource [
  label = "{<id>AuthorizationSource | + statementOfAuthorization : InternationalStructuredString \l + legalMandate : InternationalString \l + authorizationDate : Date \l + purpose : InternationalStructuredString \l \l \l| <AuthorizationSource_authorizingAgent_association> authorizingAgent \l \l}"

  tooltip = "Representations:AuthorizationSource"


]

subgraph Identification {
label = "Identification"    

  node [ color = "#0000ff" ]

DDI4_AnnotatedIdentifiable [
  label = "{<id>DDI_AnnotatedIdentifiable}"

  tooltip = "Identification:AnnotatedIdentifiable"

href = "../Package/Identification/AnnotatedIdentifiable/index.html"
]

}

subgraph Agents {
label = "Agents"    

  node [ color = "#0000ff" ]

DDI4_Agent [
  label = "{<id>DDI_Agent}"

  tooltip = "Agents:Agent"

href = "../Package/Agents/Agent/index.html"
]

}

DDI4_AuthorizationSource -> DDI4_AnnotatedIdentifiable [arrowhead=onormal color="#000000"];

  DDI4_AuthorizationSource:AuthorizationSource_authorizingAgent_association -> DDI4_Agent [ arrowhead=none arrowtail=odiamond labeldistance=1.9 taillabel="0..n" headlabel="0..n" edgetooltip="authorizingAgent" fontcolor="black" color="#00000"];

}