digraph G {
fontname = "Bitstream Vera Sans"
fontsize = 8

overlap=false;

compound=true;    

node [
  fontname = "Bitstream Vera Sans"
  fontsize = 8
  shape = "record"
]

edge [
  fontname = "Bitstream Vera Sans"
  fontsize = 8
  mode="ipsep"            
]


DDI4_ClassificationSeries [
  label = "{<id>ClassificationSeries | + context : ExternalControlledVocabularyEntry \l + objectsOrUnitsClassified : ExternalControlledVocabularyEntry \l + subject : ExternalControlledVocabularyEntry \l + keyword : ExternalControlledVocabularyEntry \l + type : CollectionType \l + name : ObjectName \l + purpose : InternationalStructuredString \l + contains : StatisticalClassificationIndicator \l + isOrdered :  \l \l \l| <ClassificationSeries_realizes_association> realizes \l| <ClassificationSeries_isStructuredBy_association> isStructuredBy \l| <ClassificationSeries_owner_association> owner \l| <ClassificationSeries_definingConcept_association> definingConcept \l \l}"

  tooltip = "Representations:ClassificationSeries"


]

subgraph Conceptual {
label = "Conceptual"    

  node [ color = "#0000ff" ]

DDI4_Concept [
  label = "{<id>DDI_Concept}"

  tooltip = "Conceptual:Concept"

href = "../Package/Conceptual/Concept/index.html"
]

}

subgraph CollectionsPattern {
label = "CollectionsPattern"    

  node [ color = "#0000ff" ]

DDI4_StructuredCollection [
  label = "{<id>DDI_StructuredCollection}"

  tooltip = "CollectionsPattern:StructuredCollection"

href = "../Package/CollectionsPattern/StructuredCollection/index.html"
]

}

subgraph Identification {
label = "Identification"    

  node [ color = "#0000ff" ]

DDI4_AnnotatedIdentifiable [
  label = "{<id>DDI_AnnotatedIdentifiable}"

  tooltip = "Identification:AnnotatedIdentifiable"

href = "../Package/Identification/AnnotatedIdentifiable/index.html"
]

}

subgraph Agents {
label = "Agents"    

  node [ color = "#0000ff" ]

DDI4_Agent [
  label = "{<id>DDI_Agent}"

  tooltip = "Agents:Agent"

href = "../Package/Agents/Agent/index.html"
]

}

subgraph Representations {
label = "Representations"    

  node [ color = "#0000ff" ]

DDI4_StatisticalClassificationRelationStructure [
  label = "{<id>DDI_StatisticalClassificationRelationStructure}"

  tooltip = "Representations:StatisticalClassificationRelationStructure"

href = "../Package/Representations/StatisticalClassificationRelationStructure/index.html"
]

}

DDI4_ClassificationSeries -> DDI4_AnnotatedIdentifiable [arrowhead=onormal color="#000000"];

  DDI4_ClassificationSeries:ClassificationSeries_realizes_association -> DDI4_StructuredCollection [ arrowhead=none arrowtail=none  edgetooltip="realizes" fontcolor="black" color="#00000"];

  DDI4_ClassificationSeries:ClassificationSeries_isStructuredBy_association -> DDI4_StatisticalClassificationRelationStructure [ arrowhead=none arrowtail=odiamond labeldistance=1.9 taillabel="0..n" headlabel="0..n" edgetooltip="isStructuredBy" fontcolor="black" color="#00000"];

  DDI4_ClassificationSeries:ClassificationSeries_owner_association -> DDI4_Agent [ arrowhead=none arrowtail=odiamond labeldistance=1.9 taillabel="0..n" headlabel="0..n" edgetooltip="owner" fontcolor="black" color="#00000"];

  DDI4_ClassificationSeries:ClassificationSeries_definingConcept_association -> DDI4_Concept [ arrowhead=none arrowtail=odiamond labeldistance=1.9 taillabel="0..n" headlabel="0..n" edgetooltip="definingConcept" fontcolor="black" color="#00000"];

}