digraph G {
fontname = "Bitstream Vera Sans"
fontsize = 8

overlap=false;

compound=true;    

node [
  fontname = "Bitstream Vera Sans"
  fontsize = 8
  shape = "record"
]

edge [
  fontname = "Bitstream Vera Sans"
  fontsize = 8
  mode="ipsep"            
]


DDI4_Budget [
  label = "{<id>Budget | + overview : InternationalStructuredString \l + name : ObjectName \l \l \l| <Budget_budgetDocument_association> budgetDocument \l \l}"

  tooltip = "StudyRelated:Budget"


]

DDI4_ComplianceStatement [
  label = "{<id>ComplianceStatement | + externalComplianceCode : ExternalControlledVocabularyEntry \l + usage : InternationalStructuredString \l \l \l| <ComplianceStatement_definingConcept_association> definingConcept \l \l}"

  tooltip = "StudyRelated:ComplianceStatement"


]

DDI4_Embargo [
  label = "{<id>Embargo | + displayLabel : LabelForDisplay \l + embargoDates : DateRange \l + rationale : InternationalStructuredString \l \l \l| <Embargo_responsibleAgent_association> responsibleAgent \l| <Embargo_enforcementAgent_association> enforcementAgent \l \l}"

  tooltip = "StudyRelated:Embargo"


]

DDI4_ExPostEvaluation [
  label = "{<id>ExPostEvaluation | + typeOfEvaluation : ExternalControlledVocabularyEntry \l + evaluationProcess : InternationalStructuredString \l + outcomes : InternationalStructuredString \l + completionDate : Date \l \l \l| <ExPostEvaluation_evaluator_association> evaluator \l \l}"

  tooltip = "StudyRelated:ExPostEvaluation"


]

DDI4_QualityStatement [
  label = "{<id>QualityStatement | + name : ObjectName \l + displayLabel : LabelForDisplay \l + overview : InternationalStructuredString \l + rationale : InternationalStructuredString \l + usage : InternationalStructuredString \l \l \l| <QualityStatement_usesStandard_association> usesStandard \l \l}"

  tooltip = "StudyRelated:QualityStatement"


]

DDI4_Standard [
  label = "{<id>Standard | \l \l| <Standard_compliance_association> compliance \l| <Standard_standardUsed_association> standardUsed \l \l}"

  tooltip = "StudyRelated:Standard"


]

DDI4_Study [
  label = "{<id>Study | + kindOfData : ExternalControlledVocabularyEntry \l + overview : InternationalStructuredString \l + bibliographicCitation : InternationalStructuredString \l \l \l| <Study_partOfSeries_association> partOfSeries \l| <Study_hasCoverage_association> hasCoverage \l| <Study_hasAnalysisUnit_association> hasAnalysisUnit \l| <Study_hasPopulation_association> hasPopulation \l| <Study_hasUniverse_association> hasUniverse \l| <Study_hasDesign_association> hasDesign \l| <Study_hasProcess_association> hasProcess \l| <Study_hasInstrument_association> hasInstrument \l| <Study_hasEmbargo_association> hasEmbargo \l| <Study_accessInformation_association> accessInformation \l| <Study_hasFundingInformation_association> hasFundingInformation \l| <Study_hasAuthorizationSource_association> hasAuthorizationSource \l| <Study_hasQualityStatement_association> hasQualityStatement \l| <Study_hasBudget_association> hasBudget \l| <Study_hasInstanceVariable_association> hasInstanceVariable \l| <Study_realizes_association> realizes \l| <Study_hasExPostEvaluation_association> hasExPostEvaluation \l| <Study_hasSamplingProcedure_association> hasSamplingProcedure \l| <Study_hasMethodology_association> hasMethodology \l| <Study_hasAlgorithm_association> hasAlgorithm \l| <Study_hasConcept_association> hasConcept \l| <Study_hasVariableCollection_association> hasVariableCollection \l| <Study_hasAgentListing_association> hasAgentListing \l \l}"

  tooltip = "StudyRelated:Study"


]

DDI4_StudyControl [
  label = "{<id>StudyControl | \l \l| <StudyControl_hasStudy_association> hasStudy \l \l}"

  tooltip = "StudyRelated:StudyControl"


]

DDI4_StudyRelationStructure [
  label = "{<id>StudyRelationStructure | + hasRelationSpecification : RelationSpecification \l + semantic : ExternalControlledVocabularyEntry \l + totality : TotalityType \l + hasMemberRelation : StudyRelation \l \l \l| <StudyRelationStructure_realizes_association> realizes \l \l}"

  tooltip = "StudyRelated:StudyRelationStructure"


]

DDI4_StudySeries [
  label = "{<id>StudySeries | + name : ObjectName \l + overview : InternationalStructuredString \l + type : CollectionType \l + purpose : InternationalStructuredString \l + contains : StudyIndicator \l + isOrdered :  \l \l \l| <StudySeries_realizes_association> realizes \l| <StudySeries_isStructuredBy_association> isStructuredBy \l| <StudySeries_definingConcept_association> definingConcept \l \l}"

  tooltip = "StudyRelated:StudySeries"


]

subgraph Conceptual {
label = "Conceptual"    

  node [ color = "#0000ff" ]

DDI4_Concept [
  label = "{<id>DDI_Concept}"

  tooltip = "Conceptual:Concept"

href = "../Package/Conceptual/Concept/index.html"
]

DDI4_InstanceVariable [
  label = "{<id>DDI_InstanceVariable}"

  tooltip = "Conceptual:InstanceVariable"

href = "../Package/Conceptual/InstanceVariable/index.html"
]

DDI4_Population [
  label = "{<id>DDI_Population}"

  tooltip = "Conceptual:Population"

href = "../Package/Conceptual/Population/index.html"
]

DDI4_UnitType [
  label = "{<id>DDI_UnitType}"

  tooltip = "Conceptual:UnitType"

href = "../Package/Conceptual/UnitType/index.html"
]

DDI4_Universe [
  label = "{<id>DDI_Universe}"

  tooltip = "Conceptual:Universe"

href = "../Package/Conceptual/Universe/index.html"
]

DDI4_VariableCollection [
  label = "{<id>DDI_VariableCollection}"

  tooltip = "Conceptual:VariableCollection"

href = "../Package/Conceptual/VariableCollection/index.html"
]

}

subgraph SimpleMethodologyOverview {
label = "SimpleMethodologyOverview"    

  node [ color = "#0000ff" ]

DDI4_AlgorithmOverview [
  label = "{<id>DDI_AlgorithmOverview}"

  tooltip = "SimpleMethodologyOverview:AlgorithmOverview"

href = "../Package/SimpleMethodologyOverview/AlgorithmOverview/index.html"
]

DDI4_DesignOverview [
  label = "{<id>DDI_DesignOverview}"

  tooltip = "SimpleMethodologyOverview:DesignOverview"

href = "../Package/SimpleMethodologyOverview/DesignOverview/index.html"
]

DDI4_MethodologyOverview [
  label = "{<id>DDI_MethodologyOverview}"

  tooltip = "SimpleMethodologyOverview:MethodologyOverview"

href = "../Package/SimpleMethodologyOverview/MethodologyOverview/index.html"
]

DDI4_ProcessOverview [
  label = "{<id>DDI_ProcessOverview}"

  tooltip = "SimpleMethodologyOverview:ProcessOverview"

href = "../Package/SimpleMethodologyOverview/ProcessOverview/index.html"
]

}

subgraph SamplingMethodology {
label = "SamplingMethodology"    

  node [ color = "#0000ff" ]

DDI4_SamplingProcedure [
  label = "{<id>DDI_SamplingProcedure}"

  tooltip = "SamplingMethodology:SamplingProcedure"

href = "../Package/SamplingMethodology/SamplingProcedure/index.html"
]

}

subgraph Utility {
label = "Utility"    

  node [ color = "#0000ff" ]

DDI4_ExternalMaterial [
  label = "{<id>DDI_ExternalMaterial}"

  tooltip = "Utility:ExternalMaterial"

href = "../Package/Utility/ExternalMaterial/index.html"
]

DDI4_FundingInformation [
  label = "{<id>DDI_FundingInformation}"

  tooltip = "Utility:FundingInformation"

href = "../Package/Utility/FundingInformation/index.html"
]

}

subgraph Workflows {
label = "Workflows"    

  node [ color = "#0000ff" ]

DDI4_Act [
  label = "{<id>DDI_Act}"

  tooltip = "Workflows:Act"

href = "../Package/Workflows/Act/index.html"
]

}

subgraph Discovery {
label = "Discovery"    

  node [ color = "#0000ff" ]

DDI4_Access [
  label = "{<id>DDI_Access}"

  tooltip = "Discovery:Access"

href = "../Package/Discovery/Access/index.html"
]

DDI4_Coverage [
  label = "{<id>DDI_Coverage}"

  tooltip = "Discovery:Coverage"

href = "../Package/Discovery/Coverage/index.html"
]

}

subgraph DataCapture {
label = "DataCapture"    

  node [ color = "#0000ff" ]

DDI4_ImplementedInstrument [
  label = "{<id>DDI_ImplementedInstrument}"

  tooltip = "DataCapture:ImplementedInstrument"

href = "../Package/DataCapture/ImplementedInstrument/index.html"
]

}

subgraph CollectionsPattern {
label = "CollectionsPattern"    

  node [ color = "#0000ff" ]

DDI4_CollectionMember [
  label = "{<id>DDI_CollectionMember}"

  tooltip = "CollectionsPattern:CollectionMember"

href = "../Package/CollectionsPattern/CollectionMember/index.html"
]

DDI4_RelationStructure [
  label = "{<id>DDI_RelationStructure}"

  tooltip = "CollectionsPattern:RelationStructure"

href = "../Package/CollectionsPattern/RelationStructure/index.html"
]

DDI4_StructuredCollection [
  label = "{<id>DDI_StructuredCollection}"

  tooltip = "CollectionsPattern:StructuredCollection"

href = "../Package/CollectionsPattern/StructuredCollection/index.html"
]

}

subgraph Identification {
label = "Identification"    

  node [ color = "#0000ff" ]

DDI4_AnnotatedIdentifiable [
  label = "{<id>DDI_AnnotatedIdentifiable}"

  tooltip = "Identification:AnnotatedIdentifiable"

href = "../Package/Identification/AnnotatedIdentifiable/index.html"
]

DDI4_Identifiable [
  label = "{<id>DDI_Identifiable}"

  tooltip = "Identification:Identifiable"

href = "../Package/Identification/Identifiable/index.html"
]

}

subgraph Agents {
label = "Agents"    

  node [ color = "#0000ff" ]

DDI4_Agent [
  label = "{<id>DDI_Agent}"

  tooltip = "Agents:Agent"

href = "../Package/Agents/Agent/index.html"
]

DDI4_AgentListing [
  label = "{<id>DDI_AgentListing}"

  tooltip = "Agents:AgentListing"

href = "../Package/Agents/AgentListing/index.html"
]

}

subgraph Representations {
label = "Representations"    

  node [ color = "#0000ff" ]

DDI4_AuthorizationSource [
  label = "{<id>DDI_AuthorizationSource}"

  tooltip = "Representations:AuthorizationSource"

href = "../Package/Representations/AuthorizationSource/index.html"
]

}

DDI4_Budget -> DDI4_AnnotatedIdentifiable [arrowhead=onormal color="#000000"];

  DDI4_Budget:Budget_budgetDocument_association -> DDI4_ExternalMaterial [ arrowhead=none arrowtail=odiamond labeldistance=1.9 taillabel="0..n" headlabel="0..n" edgetooltip="budgetDocument" fontcolor="black" color="#00000"];

DDI4_ComplianceStatement -> DDI4_AnnotatedIdentifiable [arrowhead=onormal color="#000000"];

  DDI4_ComplianceStatement:ComplianceStatement_definingConcept_association -> DDI4_Concept [ arrowhead=none arrowtail=odiamond labeldistance=1.9 taillabel="0..n" headlabel="0..n" edgetooltip="definingConcept" fontcolor="black" color="#00000"];

DDI4_Embargo -> DDI4_AnnotatedIdentifiable [arrowhead=onormal color="#000000"];

  DDI4_Embargo:Embargo_responsibleAgent_association -> DDI4_Agent [ arrowhead=none arrowtail=odiamond labeldistance=1.9 taillabel="0..n" headlabel="0..1" edgetooltip="responsibleAgent" fontcolor="black" color="#00000"];

  DDI4_Embargo:Embargo_enforcementAgent_association -> DDI4_Agent [ arrowhead=none arrowtail=odiamond labeldistance=1.9 taillabel="0..n" headlabel="0..1" edgetooltip="enforcementAgent" fontcolor="black" color="#00000"];

DDI4_ExPostEvaluation -> DDI4_AnnotatedIdentifiable [arrowhead=onormal color="#000000"];

  DDI4_ExPostEvaluation:ExPostEvaluation_evaluator_association -> DDI4_Agent [ arrowhead=none arrowtail=odiamond labeldistance=1.9 taillabel="0..n" headlabel="0..n" edgetooltip="evaluator" fontcolor="black" color="#00000"];

DDI4_QualityStatement -> DDI4_AnnotatedIdentifiable [arrowhead=onormal color="#000000"];

  DDI4_QualityStatement:QualityStatement_usesStandard_association -> DDI4_Standard [ arrowhead=none arrowtail=odiamond labeldistance=1.9 taillabel="0..n" headlabel="0..1" edgetooltip="usesStandard" fontcolor="black" color="#00000"];

DDI4_Standard -> DDI4_AnnotatedIdentifiable [arrowhead=onormal color="#000000"];

  DDI4_Standard:Standard_compliance_association -> DDI4_ComplianceStatement [ arrowhead=none arrowtail=odiamond labeldistance=1.9 taillabel="0..n" headlabel="0..1" edgetooltip="compliance" fontcolor="black" color="#00000"];

  DDI4_Standard:Standard_standardUsed_association -> DDI4_ExternalMaterial [ arrowhead=none arrowtail=odiamond labeldistance=1.9 taillabel="0..n" headlabel="0..n" edgetooltip="standardUsed" fontcolor="black" color="#00000"];

DDI4_Study -> DDI4_AnnotatedIdentifiable [arrowhead=onormal color="#000000"];

  DDI4_Study:Study_partOfSeries_association -> DDI4_StudySeries [ arrowhead=none arrowtail=odiamond labeldistance=1.9 taillabel="0..n" headlabel="0..n" edgetooltip="partOfSeries" fontcolor="black" color="#00000"];

  DDI4_Study:Study_hasCoverage_association -> DDI4_Coverage [ arrowhead=none arrowtail=odiamond labeldistance=1.9 taillabel="0..n" headlabel="0..n" edgetooltip="hasCoverage" fontcolor="black" color="#00000"];

  DDI4_Study:Study_hasAnalysisUnit_association -> DDI4_UnitType [ arrowhead=none arrowtail=odiamond labeldistance=1.9 taillabel="0..n" headlabel="0..n" edgetooltip="hasAnalysisUnit" fontcolor="black" color="#00000"];

  DDI4_Study:Study_hasPopulation_association -> DDI4_Population [ arrowhead=none arrowtail=odiamond labeldistance=1.9 taillabel="0..n" headlabel="0..n" edgetooltip="hasPopulation" fontcolor="black" color="#00000"];

  DDI4_Study:Study_hasUniverse_association -> DDI4_Universe [ arrowhead=none arrowtail=odiamond labeldistance=1.9 taillabel="0..n" headlabel="0..n" edgetooltip="hasUniverse" fontcolor="black" color="#00000"];

  DDI4_Study:Study_hasDesign_association -> DDI4_DesignOverview [ arrowhead=none arrowtail=odiamond labeldistance=1.9 taillabel="0..n" headlabel="0..1" edgetooltip="hasDesign" fontcolor="black" color="#00000"];

  DDI4_Study:Study_hasProcess_association -> DDI4_ProcessOverview [ arrowhead=none arrowtail=odiamond labeldistance=1.9 taillabel="0..n" headlabel="0..n" edgetooltip="hasProcess" fontcolor="black" color="#00000"];

  DDI4_Study:Study_hasInstrument_association -> DDI4_ImplementedInstrument [ arrowhead=none arrowtail=odiamond labeldistance=1.9 taillabel="0..n" headlabel="0..n" edgetooltip="hasInstrument" fontcolor="black" color="#00000"];

  DDI4_Study:Study_hasEmbargo_association -> DDI4_Embargo [ arrowhead=none arrowtail=odiamond labeldistance=1.9 taillabel="0..n" headlabel="0..1" edgetooltip="hasEmbargo" fontcolor="black" color="#00000"];

  DDI4_Study:Study_accessInformation_association -> DDI4_Access [ arrowhead=none arrowtail=odiamond labeldistance=1.9 taillabel="0..n" headlabel="0..1" edgetooltip="accessInformation" fontcolor="black" color="#00000"];

  DDI4_Study:Study_hasFundingInformation_association -> DDI4_FundingInformation [ arrowhead=none arrowtail=odiamond labeldistance=1.9 taillabel="0..n" headlabel="0..n" edgetooltip="hasFundingInformation" fontcolor="black" color="#00000"];

  DDI4_Study:Study_hasAuthorizationSource_association -> DDI4_AuthorizationSource [ arrowhead=none arrowtail=odiamond labeldistance=1.9 taillabel="0..n" headlabel="0..n" edgetooltip="hasAuthorizationSource" fontcolor="black" color="#00000"];

  DDI4_Study:Study_hasQualityStatement_association -> DDI4_QualityStatement [ arrowhead=none arrowtail=odiamond labeldistance=1.9 taillabel="0..n" headlabel="0..1" edgetooltip="hasQualityStatement" fontcolor="black" color="#00000"];

  DDI4_Study:Study_hasBudget_association -> DDI4_Budget [ arrowhead=none arrowtail=odiamond labeldistance=1.9 taillabel="0..n" headlabel="0..n" edgetooltip="hasBudget" fontcolor="black" color="#00000"];

  DDI4_Study:Study_hasInstanceVariable_association -> DDI4_InstanceVariable [ arrowhead=none arrowtail=odiamond labeldistance=1.9 taillabel="0..n" headlabel="0..n" edgetooltip="hasInstanceVariable" fontcolor="black" color="#00000"];

  DDI4_Study:Study_realizes_association -> DDI4_CollectionMember [ arrowhead=none arrowtail=none  edgetooltip="realizes" fontcolor="black" color="#00000"];

  DDI4_Study:Study_hasExPostEvaluation_association -> DDI4_ExPostEvaluation [ arrowhead=none arrowtail=odiamond labeldistance=1.9 taillabel="0..1" headlabel="0..n" edgetooltip="hasExPostEvaluation" fontcolor="black" color="#00000"];

  DDI4_Study:Study_hasSamplingProcedure_association -> DDI4_SamplingProcedure [ arrowhead=none arrowtail=odiamond labeldistance=1.9 taillabel="0..n" headlabel="0..n" edgetooltip="hasSamplingProcedure" fontcolor="black" color="#00000"];

  DDI4_Study:Study_hasMethodology_association -> DDI4_MethodologyOverview [ arrowhead=none arrowtail=odiamond labeldistance=1.9 taillabel="0..n" headlabel="0..n" edgetooltip="hasMethodology" fontcolor="black" color="#00000"];

  DDI4_Study:Study_hasAlgorithm_association -> DDI4_AlgorithmOverview [ arrowhead=none arrowtail=odiamond labeldistance=1.9 taillabel="0..n" headlabel="0..n" edgetooltip="hasAlgorithm" fontcolor="black" color="#00000"];

  DDI4_Study:Study_hasConcept_association -> DDI4_Concept [ arrowhead=none arrowtail=odiamond labeldistance=1.9 taillabel="0..n" headlabel="0..n" edgetooltip="hasConcept" fontcolor="black" color="#00000"];

  DDI4_Study:Study_hasVariableCollection_association -> DDI4_VariableCollection [ arrowhead=none arrowtail=odiamond labeldistance=1.9 taillabel="0..n" headlabel="0..n" edgetooltip="hasVariableCollection" fontcolor="black" color="#00000"];

  DDI4_Study:Study_hasAgentListing_association -> DDI4_AgentListing [ arrowhead=none arrowtail=odiamond labeldistance=1.9 taillabel="0..n" headlabel="0..n" edgetooltip="hasAgentListing" fontcolor="black" color="#00000"];

DDI4_StudyControl -> DDI4_Act [arrowhead=onormal color="#000000"];

  DDI4_StudyControl:StudyControl_hasStudy_association -> DDI4_Study [ arrowhead=none arrowtail=odiamond labeldistance=1.9 taillabel="0..n" headlabel="0..n" edgetooltip="hasStudy" fontcolor="black" color="#00000"];

DDI4_StudyRelationStructure -> DDI4_Identifiable [arrowhead=onormal color="#000000"];

  DDI4_StudyRelationStructure:StudyRelationStructure_realizes_association -> DDI4_RelationStructure [ arrowhead=none arrowtail=none  edgetooltip="realizes" fontcolor="black" color="#00000"];

DDI4_StudySeries -> DDI4_AnnotatedIdentifiable [arrowhead=onormal color="#000000"];

  DDI4_StudySeries:StudySeries_realizes_association -> DDI4_StructuredCollection [ arrowhead=none arrowtail=none  edgetooltip="realizes" fontcolor="black" color="#00000"];

  DDI4_StudySeries:StudySeries_isStructuredBy_association -> DDI4_StudyRelationStructure [ arrowhead=none arrowtail=odiamond labeldistance=1.9 taillabel="0..n" headlabel="0..n" edgetooltip="isStructuredBy" fontcolor="black" color="#00000"];

  DDI4_StudySeries:StudySeries_definingConcept_association -> DDI4_Concept [ arrowhead=none arrowtail=odiamond labeldistance=1.9 taillabel="0..n" headlabel="0..n" edgetooltip="definingConcept" fontcolor="black" color="#00000"];

}