digraph G {
fontname = "Bitstream Vera Sans"
fontsize = 8

overlap=false;

compound=true;    

node [
  fontname = "Bitstream Vera Sans"
  fontsize = 8
  shape = "record"
]

edge [
  fontname = "Bitstream Vera Sans"
  fontsize = 8
  mode="ipsep"            
]


DDI4_ProcessControlStep [
  label = "{<id>ProcessControlStep | \l \l| <ProcessControlStep_executes_association> executes \l \l}"

  tooltip = "ProcessPattern:ProcessControlStep"


]

subgraph ProcessPattern {
label = "ProcessPattern"    

  node [ color = "#0000ff" ]

DDI4_ProcessStep [
  label = "{<id>DDI_ProcessStep}"

  tooltip = "ProcessPattern:ProcessStep"

href = "../Package/ProcessPattern/ProcessStep/index.html"
]

}

DDI4_ProcessControlStep -> DDI4_ProcessStep [arrowhead=onormal color="#000000"];

  DDI4_ProcessControlStep:ProcessControlStep_executes_association -> DDI4_ProcessStep [ arrowhead=none arrowtail=odiamond labeldistance=1.9 taillabel="0..n" headlabel="0..n" edgetooltip="executes" fontcolor="black" color="#00000"];

}