digraph G {
fontname = "Bitstream Vera Sans"
fontsize = 8

overlap=false;

compound=true;    

node [
  fontname = "Bitstream Vera Sans"
  fontsize = 8
  shape = "record"
]

edge [
  fontname = "Bitstream Vera Sans"
  fontsize = 8
  mode="ipsep"            
]


DDI4_WorkflowControlStep [
  label = "{<id>WorkflowControlStep | \l \l| <WorkflowControlStep_realizes_association> realizes \l| <WorkflowControlStep_executes_association> executes \l \l}"

  tooltip = "Workflows:WorkflowControlStep"


]

subgraph ProcessPattern {
label = "ProcessPattern"    

  node [ color = "#0000ff" ]

DDI4_ProcessControlStep [
  label = "{<id>DDI_ProcessControlStep}"

  tooltip = "ProcessPattern:ProcessControlStep"

href = "../Package/ProcessPattern/ProcessControlStep/index.html"
]

}

subgraph Workflows {
label = "Workflows"    

  node [ color = "#0000ff" ]

DDI4_WorkflowStep [
  label = "{<id>DDI_WorkflowStep}"

  tooltip = "Workflows:WorkflowStep"

href = "../Package/Workflows/WorkflowStep/index.html"
]

}

DDI4_WorkflowControlStep -> DDI4_WorkflowStep [arrowhead=onormal color="#000000"];

  DDI4_WorkflowControlStep:WorkflowControlStep_realizes_association -> DDI4_ProcessControlStep [ arrowhead=none arrowtail=none  edgetooltip="realizes" fontcolor="black" color="#00000"];

  DDI4_WorkflowControlStep:WorkflowControlStep_executes_association -> DDI4_WorkflowStep [ arrowhead=none arrowtail=odiamond labeldistance=1.9 taillabel="0..n" headlabel="0..n" edgetooltip="executes" fontcolor="black" color="#00000"];

}