digraph G {
fontname = "Bitstream Vera Sans"
fontsize = 8

overlap=false;

compound=true;    

node [
  fontname = "Bitstream Vera Sans"
  fontsize = 8
  shape = "record"
]

edge [
  fontname = "Bitstream Vera Sans"
  fontsize = 8
  mode="ipsep"            
]


DDI4_AlgorithmOverview [
  label = "{<id>AlgorithmOverview | + subjectOfAlgorithm : ExternalControlledVocabularyEntry \l + overview : InternationalStructuredString \l \l \l| <AlgorithmOverview_isDescribedIn_association> isDescribedIn \l| <AlgorithmOverview_realizes_association> realizes \l \l}"

  tooltip = "SimpleMethodologyOverview:AlgorithmOverview"


]

DDI4_BusinessAlgorithm [
  label = "{<id>BusinessAlgorithm | \l \l| \l \l}"

  tooltip = "BusinessWorkflow:BusinessAlgorithm"


]

DDI4_BusinessProcess [
  label = "{<id>BusinessProcess | + standardModelUsed : PairedExternalControlledVocabularyEntry \l + preCondition : BusinessProcessCondition \l + postCondition : BusinessProcessCondition \l \l \l| \l \l}"

  tooltip = "BusinessWorkflow:BusinessProcess"


]

DDI4_ComputationAction [
  label = "{<id>ComputationAction | + activityDescription : InternationalStructuredString \l + usesCommandCode : CommandCode \l + typeOfComputation : ExternalControlledVocabularyEntry \l \l \l| \l \l}"

  tooltip = "Workflows:ComputationAction"


]

DDI4_Concept [
  label = "{<id>Concept | + name : ObjectName \l + definition : InternationalStructuredString \l + displayLabel : LabelForDisplay \l \l \l| <Concept_realizes_association> realizes \l \l}"

  tooltip = "Conceptual:Concept"


]

DDI4_Coverage [
  label = "{<id>Coverage | + overview : InternationalStructuredString \l \l \l| <Coverage_hasTemporalCoverage_association> hasTemporalCoverage \l| <Coverage_hasTopicalCoverage_association> hasTopicalCoverage \l| <Coverage_hasSpatialCoverage_association> hasSpatialCoverage \l \l}"

  tooltip = "Discovery:Coverage"


]

DDI4_DataPipeline [
  label = "{<id>DataPipeline | + type : CollectionType \l + name : ObjectName \l + purpose : InternationalStructuredString \l + contains : BusinessProcessIndicator \l + isOrdered :  \l \l \l| <DataPipeline_isInStudy_association> isInStudy \l| <DataPipeline_realizes_association> realizes \l| <DataPipeline_definingConcept_association> definingConcept \l \l}"

  tooltip = "BusinessWorkflow:DataPipeline"


]

DDI4_DataStore [
  label = "{<id>DataStore | + characterSet :  \l + dataStoreType : ExternalControlledVocabularyEntry \l + type : CollectionType \l + name : ObjectName \l + purpose : InternationalStructuredString \l + recordCount :  \l + aboutMissing : InternationalStructuredString \l + contains : LogicalRecordIndicator \l + isOrdered :  \l \l \l| <DataStore_realizes_association> realizes \l| <DataStore_isStructuredBy_association> isStructuredBy \l| <DataStore_isInStudy_association> isInStudy \l| <DataStore_usesRecordRelation_association> usesRecordRelation \l| <DataStore_definingConcept_association> definingConcept \l \l}"

  tooltip = "LogicalDataDescription:DataStore"


]

DDI4_DesignOverview [
  label = "{<id>DesignOverview | + subectOfDesign : ExternalControlledVocabularyEntry \l + overview : InternationalStructuredString \l \l \l| <DesignOverview_isDescribedIn_association> isDescribedIn \l| <DesignOverview_assumesPrecondition_association> assumesPrecondition \l| <DesignOverview_specifiesGoal_association> specifiesGoal \l| <DesignOverview_expressesAlgorithm_association> expressesAlgorithm \l| <DesignOverview_implementedBy_association> implementedBy \l| <DesignOverview_realizes_association> realizes \l \l}"

  tooltip = "SimpleMethodologyOverview:DesignOverview"


]

DDI4_ExternalMaterial [
  label = "{<id>ExternalMaterial | + typeOfMaterial : ExternalControlledVocabularyEntry \l + descriptiveText : InternationalStructuredString \l + uri :  \l + relationshipDescription : InternationalStructuredString \l + mimeType : ExternalControlledVocabularyEntry \l + usesSegment : Segment \l + citationOfExternalMaterial : Annotation \l \l \l| \l \l}"

  tooltip = "Utility:ExternalMaterial"


]

DDI4_IfThenElse [
  label = "{<id>IfThenElse | + elseIf : ElseIfAction \l \l \l| <IfThenElse_elseExecutes_association> elseExecutes \l \l}"

  tooltip = "Workflows:IfThenElse"


]

DDI4_InstanceVariable [
  label = "{<id>InstanceVariable | + variableFunction : ExternalControlledVocabularyEntry \l + physicalDataType : ExternalControlledVocabularyEntry \l + platformType : ExternalControlledVocabularyEntry \l \l \l| <InstanceVariable_measures_association> measures \l| <InstanceVariable_basedOnRepresentedVariable_association> basedOnRepresentedVariable \l| <InstanceVariable_basedOnConceptualVariable_association> basedOnConceptualVariable \l| <InstanceVariable_takesPlatformSpecificSentinelValues_association> takesPlatformSpecificSentinelValues \l| <InstanceVariable_sourceCapture_association> sourceCapture \l| <InstanceVariable_generatedBy_association> generatedBy \l \l}"

  tooltip = "Conceptual:InstanceVariable"


]

DDI4_InstanceVariableRelationStructure [
  label = "{<id>InstanceVariableRelationStructure | + criteria : InternationalStructuredString \l + displayLabel : LabelForDisplay \l + usage : InternationalStructuredString \l + semantic : ExternalControlledVocabularyEntry \l + totality : TotalityType \l + hasRelationSpecification : RelationSpecification \l + hasMemberRelation : InstanceVariableRelation \l \l \l| <InstanceVariableRelationStructure_realizes_association> realizes \l \l}"

  tooltip = "LogicalDataDescription:InstanceVariableRelationStructure"


]

DDI4_LogicalRecordRelationStructure [
  label = "{<id>LogicalRecordRelationStructure | + hasRelationSpecification : RelationSpecification \l + semantic : ExternalControlledVocabularyEntry \l + totality : TotalityType \l + hasMemberRelation : LogicalRecordRelation \l \l \l| <LogicalRecordRelationStructure_realizes_association> realizes \l \l}"

  tooltip = "LogicalDataDescription:LogicalRecordRelationStructure"


]

DDI4_Loop [
  label = "{<id>Loop | + initialValue : CommandCode \l + stepValue : CommandCode \l \l \l| \l \l}"

  tooltip = "Workflows:Loop"


]

DDI4_MetadataDrivenAction [
  label = "{<id>MetadataDrivenAction | + activityDescription : InternationalStructuredString \l + typeOfMetadataDrivenAction : ExternalControlledVocabularyEntry \l + quasiVTL : InternationalStructuredString \l \l \l| \l \l}"

  tooltip = "Workflows:MetadataDrivenAction"


]

DDI4_MethodologyOverview [
  label = "{<id>MethodologyOverview | + subjectOfMethodology : ExternalControlledVocabularyEntry \l + name : ObjectName \l + usage : InternationalStructuredString \l + rationale : InternationalStructuredString \l + overview : InternationalStructuredString \l \l \l| <MethodologyOverview_isDescribedIn_association> isDescribedIn \l| <MethodologyOverview_hasDesign_association> hasDesign \l| <MethodologyOverview_isExpressedBy_association> isExpressedBy \l| <MethodologyOverview_componentMethodology_association> componentMethodology \l| <MethodologyOverview_realizes_association> realizes \l \l}"

  tooltip = "SimpleMethodologyOverview:MethodologyOverview"


]

DDI4_Parameter [
  label = "{<id>Parameter | + alias :  \l + defaultValue : ValueString \l + isArray :  \l + limitArrayIndex :  \l + agency :  \l + id :  \l + version :  \l + name : ObjectName \l + purpose : InternationalStructuredString \l \l \l| <Parameter_valueRepresentation_association> valueRepresentation \l \l}"

  tooltip = "Workflows:Parameter"


]

DDI4_RepeatUntil [
  label = "{<id>RepeatUntil | \l \l| \l \l}"

  tooltip = "Workflows:RepeatUntil"


]

DDI4_RepeatWhile [
  label = "{<id>RepeatWhile | \l \l| \l \l}"

  tooltip = "Workflows:RepeatWhile"


]

DDI4_SentinelValueDomain [
  label = "{<id>SentinelValueDomain | + platformType : ExternalControlledVocabularyEntry \l \l \l| <SentinelValueDomain_takesConceptsFrom_association> takesConceptsFrom \l| <SentinelValueDomain_describedValueDomain_association> describedValueDomain \l| <SentinelValueDomain_enumeratedValueDomain_association> enumeratedValueDomain \l \l}"

  tooltip = "Representations:SentinelValueDomain"


]

DDI4_SpatialCoverage [
  label = "{<id>SpatialCoverage | + description : InternationalStructuredString \l + spatialAreaCode : ExternalControlledVocabularyEntry \l + spatialObject : SpatialObjectType \l \l \l| <SpatialCoverage_hasBoundingBox_association> hasBoundingBox \l| <SpatialCoverage_usesGeographicUnitTypeClassification_association> usesGeographicUnitTypeClassification \l| <SpatialCoverage_usesGeographicUnitClassification_association> usesGeographicUnitClassification \l| <SpatialCoverage_includesGeographicUnitType_association> includesGeographicUnitType \l| <SpatialCoverage_includesGeographicUnit_association> includesGeographicUnit \l| <SpatialCoverage_highestGeographicUnitTypeCovered_association> highestGeographicUnitTypeCovered \l| <SpatialCoverage_lowestGeographicUnitTypeCovered_association> lowestGeographicUnitTypeCovered \l \l}"

  tooltip = "Discovery:SpatialCoverage"


]

DDI4_Split [
  label = "{<id>Split | \l \l| \l \l}"

  tooltip = "Workflows:Split"


]

DDI4_SplitJoin [
  label = "{<id>SplitJoin | \l \l| \l \l}"

  tooltip = "Workflows:SplitJoin"


]

DDI4_Study [
  label = "{<id>Study | + kindOfData : ExternalControlledVocabularyEntry \l + overview : InternationalStructuredString \l + bibliographicCitation : InternationalStructuredString \l \l \l| <Study_partOfSeries_association> partOfSeries \l| <Study_hasCoverage_association> hasCoverage \l| <Study_hasAnalysisUnit_association> hasAnalysisUnit \l| <Study_hasPopulation_association> hasPopulation \l| <Study_hasUniverse_association> hasUniverse \l| <Study_hasDesign_association> hasDesign \l| <Study_hasProcess_association> hasProcess \l| <Study_hasInstrument_association> hasInstrument \l| <Study_hasEmbargo_association> hasEmbargo \l| <Study_accessInformation_association> accessInformation \l| <Study_hasFundingInformation_association> hasFundingInformation \l| <Study_hasAuthorizationSource_association> hasAuthorizationSource \l| <Study_hasQualityStatement_association> hasQualityStatement \l| <Study_hasBudget_association> hasBudget \l| <Study_hasInstanceVariable_association> hasInstanceVariable \l| <Study_realizes_association> realizes \l| <Study_hasExPostEvaluation_association> hasExPostEvaluation \l| <Study_hasSamplingProcedure_association> hasSamplingProcedure \l| <Study_hasMethodology_association> hasMethodology \l| <Study_hasAlgorithm_association> hasAlgorithm \l| <Study_hasConcept_association> hasConcept \l| <Study_hasVariableCollection_association> hasVariableCollection \l| <Study_hasAgentListing_association> hasAgentListing \l \l}"

  tooltip = "StudyRelated:Study"


]

DDI4_SubstantiveValueDomain [
  label = "{<id>SubstantiveValueDomain | \l \l| <SubstantiveValueDomain_takesConceptsFrom_association> takesConceptsFrom \l| <SubstantiveValueDomain_describedValueDomain_association> describedValueDomain \l| <SubstantiveValueDomain_enumeratedValueDomain_association> enumeratedValueDomain \l \l}"

  tooltip = "Representations:SubstantiveValueDomain"


]

DDI4_TemporalCoverage [
  label = "{<id>TemporalCoverage | + coverageDate : ReferenceDate \l \l \l| \l \l}"

  tooltip = "Discovery:TemporalCoverage"


]

DDI4_TopicalCoverage [
  label = "{<id>TopicalCoverage | + subject : ExternalControlledVocabularyEntry \l + keyword : ExternalControlledVocabularyEntry \l \l \l| \l \l}"

  tooltip = "Discovery:TopicalCoverage"


]

DDI4_UnitDataRecord [
  label = "{<id>UnitDataRecord | \l \l| <UnitDataRecord_isStructuredBy_association> isStructuredBy \l| <UnitDataRecord_isViewedFrom_association> isViewedFrom \l \l}"

  tooltip = "LogicalDataDescription:UnitDataRecord"


]

DDI4_WorkflowStepSequence [
  label = "{<id>WorkflowStepSequence | + typeOfWorkflowStepSequence : ExternalControlledVocabularyEntry \l + orderedStep : WorkflowStepOrder \l + name : ObjectName \l + purpose : InternationalStructuredString \l \l \l| \l \l}"

  tooltip = "Workflows:WorkflowStepSequence"


]

subgraph Conceptual {
label = "Conceptual"    

  node [ color = "#0000ff" ]

DDI4_ConceptualVariable [
  label = "{<id>DDI_ConceptualVariable}"

  tooltip = "Conceptual:ConceptualVariable"

href = "../Package/Conceptual/ConceptualVariable/index.html"
]

DDI4_Population [
  label = "{<id>DDI_Population}"

  tooltip = "Conceptual:Population"

href = "../Package/Conceptual/Population/index.html"
]

DDI4_RepresentedVariable [
  label = "{<id>DDI_RepresentedVariable}"

  tooltip = "Conceptual:RepresentedVariable"

href = "../Package/Conceptual/RepresentedVariable/index.html"
]

DDI4_SentinelConceptualDomain [
  label = "{<id>DDI_SentinelConceptualDomain}"

  tooltip = "Conceptual:SentinelConceptualDomain"

href = "../Package/Conceptual/SentinelConceptualDomain/index.html"
]

DDI4_SubstantiveConceptualDomain [
  label = "{<id>DDI_SubstantiveConceptualDomain}"

  tooltip = "Conceptual:SubstantiveConceptualDomain"

href = "../Package/Conceptual/SubstantiveConceptualDomain/index.html"
]

DDI4_UnitType [
  label = "{<id>DDI_UnitType}"

  tooltip = "Conceptual:UnitType"

href = "../Package/Conceptual/UnitType/index.html"
]

DDI4_Universe [
  label = "{<id>DDI_Universe}"

  tooltip = "Conceptual:Universe"

href = "../Package/Conceptual/Universe/index.html"
]

DDI4_VariableCollection [
  label = "{<id>DDI_VariableCollection}"

  tooltip = "Conceptual:VariableCollection"

href = "../Package/Conceptual/VariableCollection/index.html"
]

}

subgraph SimpleMethodologyOverview {
label = "SimpleMethodologyOverview"    

  node [ color = "#0000ff" ]

DDI4_ProcessOverview [
  label = "{<id>DDI_ProcessOverview}"

  tooltip = "SimpleMethodologyOverview:ProcessOverview"

href = "../Package/SimpleMethodologyOverview/ProcessOverview/index.html"
]

}

subgraph MethodologyPattern {
label = "MethodologyPattern"    

  node [ color = "#0000ff" ]

DDI4_Algorithm [
  label = "{<id>DDI_Algorithm}"

  tooltip = "MethodologyPattern:Algorithm"

href = "../Package/MethodologyPattern/Algorithm/index.html"
]

DDI4_Design [
  label = "{<id>DDI_Design}"

  tooltip = "MethodologyPattern:Design"

href = "../Package/MethodologyPattern/Design/index.html"
]

DDI4_Methodology [
  label = "{<id>DDI_Methodology}"

  tooltip = "MethodologyPattern:Methodology"

href = "../Package/MethodologyPattern/Methodology/index.html"
]

}

subgraph SignificationPattern {
label = "SignificationPattern"    

  node [ color = "#0000ff" ]

DDI4_Signified [
  label = "{<id>DDI_Signified}"

  tooltip = "SignificationPattern:Signified"

href = "../Package/SignificationPattern/Signified/index.html"
]

}

subgraph GeographicClassification {
label = "GeographicClassification"    

  node [ color = "#0000ff" ]

DDI4_GeographicUnit [
  label = "{<id>DDI_GeographicUnit}"

  tooltip = "GeographicClassification:GeographicUnit"

href = "../Package/GeographicClassification/GeographicUnit/index.html"
]

DDI4_GeographicUnitClassification [
  label = "{<id>DDI_GeographicUnitClassification}"

  tooltip = "GeographicClassification:GeographicUnitClassification"

href = "../Package/GeographicClassification/GeographicUnitClassification/index.html"
]

DDI4_GeographicUnitTypeClassification [
  label = "{<id>DDI_GeographicUnitTypeClassification}"

  tooltip = "GeographicClassification:GeographicUnitTypeClassification"

href = "../Package/GeographicClassification/GeographicUnitTypeClassification/index.html"
]

}

subgraph SamplingMethodology {
label = "SamplingMethodology"    

  node [ color = "#0000ff" ]

DDI4_SamplingProcedure [
  label = "{<id>DDI_SamplingProcedure}"

  tooltip = "SamplingMethodology:SamplingProcedure"

href = "../Package/SamplingMethodology/SamplingProcedure/index.html"
]

}

subgraph StudyRelated {
label = "StudyRelated"    

  node [ color = "#0000ff" ]

DDI4_Budget [
  label = "{<id>DDI_Budget}"

  tooltip = "StudyRelated:Budget"

href = "../Package/StudyRelated/Budget/index.html"
]

DDI4_Embargo [
  label = "{<id>DDI_Embargo}"

  tooltip = "StudyRelated:Embargo"

href = "../Package/StudyRelated/Embargo/index.html"
]

DDI4_ExPostEvaluation [
  label = "{<id>DDI_ExPostEvaluation}"

  tooltip = "StudyRelated:ExPostEvaluation"

href = "../Package/StudyRelated/ExPostEvaluation/index.html"
]

DDI4_QualityStatement [
  label = "{<id>DDI_QualityStatement}"

  tooltip = "StudyRelated:QualityStatement"

href = "../Package/StudyRelated/QualityStatement/index.html"
]

DDI4_StudySeries [
  label = "{<id>DDI_StudySeries}"

  tooltip = "StudyRelated:StudySeries"

href = "../Package/StudyRelated/StudySeries/index.html"
]

}

subgraph Utility {
label = "Utility"    

  node [ color = "#0000ff" ]

DDI4_FundingInformation [
  label = "{<id>DDI_FundingInformation}"

  tooltip = "Utility:FundingInformation"

href = "../Package/Utility/FundingInformation/index.html"
]

}

subgraph Workflows {
label = "Workflows"    

  node [ color = "#0000ff" ]

DDI4_Act [
  label = "{<id>DDI_Act}"

  tooltip = "Workflows:Act"

href = "../Package/Workflows/Act/index.html"
]

DDI4_ConditionalControlStep [
  label = "{<id>DDI_ConditionalControlStep}"

  tooltip = "Workflows:ConditionalControlStep"

href = "../Package/Workflows/ConditionalControlStep/index.html"
]

DDI4_TemporalRelationControlStep [
  label = "{<id>DDI_TemporalRelationControlStep}"

  tooltip = "Workflows:TemporalRelationControlStep"

href = "../Package/Workflows/TemporalRelationControlStep/index.html"
]

DDI4_WorkflowControlStep [
  label = "{<id>DDI_WorkflowControlStep}"

  tooltip = "Workflows:WorkflowControlStep"

href = "../Package/Workflows/WorkflowControlStep/index.html"
]

DDI4_WorkflowProcess [
  label = "{<id>DDI_WorkflowProcess}"

  tooltip = "Workflows:WorkflowProcess"

href = "../Package/Workflows/WorkflowProcess/index.html"
]

}

subgraph Methodologies {
label = "Methodologies"    

  node [ color = "#0000ff" ]

DDI4_Goal [
  label = "{<id>DDI_Goal}"

  tooltip = "Methodologies:Goal"

href = "../Package/Methodologies/Goal/index.html"
]

DDI4_Precondition [
  label = "{<id>DDI_Precondition}"

  tooltip = "Methodologies:Precondition"

href = "../Package/Methodologies/Precondition/index.html"
]

}

subgraph Discovery {
label = "Discovery"    

  node [ color = "#0000ff" ]

DDI4_Access [
  label = "{<id>DDI_Access}"

  tooltip = "Discovery:Access"

href = "../Package/Discovery/Access/index.html"
]

DDI4_BoundingBox [
  label = "{<id>DDI_BoundingBox}"

  tooltip = "Discovery:BoundingBox"

href = "../Package/Discovery/BoundingBox/index.html"
]

}

subgraph DataCapture {
label = "DataCapture"    

  node [ color = "#0000ff" ]

DDI4_Capture [
  label = "{<id>DDI_Capture}"

  tooltip = "DataCapture:Capture"

href = "../Package/DataCapture/Capture/index.html"
]

DDI4_ImplementedInstrument [
  label = "{<id>DDI_ImplementedInstrument}"

  tooltip = "DataCapture:ImplementedInstrument"

href = "../Package/DataCapture/ImplementedInstrument/index.html"
]

}

subgraph CollectionsPattern {
label = "CollectionsPattern"    

  node [ color = "#0000ff" ]

DDI4_CollectionMember [
  label = "{<id>DDI_CollectionMember}"

  tooltip = "CollectionsPattern:CollectionMember"

href = "../Package/CollectionsPattern/CollectionMember/index.html"
]

DDI4_RelationStructure [
  label = "{<id>DDI_RelationStructure}"

  tooltip = "CollectionsPattern:RelationStructure"

href = "../Package/CollectionsPattern/RelationStructure/index.html"
]

DDI4_SimpleCollection [
  label = "{<id>DDI_SimpleCollection}"

  tooltip = "CollectionsPattern:SimpleCollection"

href = "../Package/CollectionsPattern/SimpleCollection/index.html"
]

DDI4_StructuredCollection [
  label = "{<id>DDI_StructuredCollection}"

  tooltip = "CollectionsPattern:StructuredCollection"

href = "../Package/CollectionsPattern/StructuredCollection/index.html"
]

}

subgraph Identification {
label = "Identification"    

  node [ color = "#0000ff" ]

DDI4_AnnotatedIdentifiable [
  label = "{<id>DDI_AnnotatedIdentifiable}"

  tooltip = "Identification:AnnotatedIdentifiable"

href = "../Package/Identification/AnnotatedIdentifiable/index.html"
]

DDI4_Identifiable [
  label = "{<id>DDI_Identifiable}"

  tooltip = "Identification:Identifiable"

href = "../Package/Identification/Identifiable/index.html"
]

}

subgraph LogicalDataDescription {
label = "LogicalDataDescription"    

  node [ color = "#0000ff" ]

DDI4_LogicalRecord [
  label = "{<id>DDI_LogicalRecord}"

  tooltip = "LogicalDataDescription:LogicalRecord"

href = "../Package/LogicalDataDescription/LogicalRecord/index.html"
]

DDI4_RecordRelation [
  label = "{<id>DDI_RecordRelation}"

  tooltip = "LogicalDataDescription:RecordRelation"

href = "../Package/LogicalDataDescription/RecordRelation/index.html"
]

DDI4_UnitDataViewpoint [
  label = "{<id>DDI_UnitDataViewpoint}"

  tooltip = "LogicalDataDescription:UnitDataViewpoint"

href = "../Package/LogicalDataDescription/UnitDataViewpoint/index.html"
]

}

subgraph Agents {
label = "Agents"    

  node [ color = "#0000ff" ]

DDI4_AgentListing [
  label = "{<id>DDI_AgentListing}"

  tooltip = "Agents:AgentListing"

href = "../Package/Agents/AgentListing/index.html"
]

}

subgraph Representations {
label = "Representations"    

  node [ color = "#0000ff" ]

DDI4_AuthorizationSource [
  label = "{<id>DDI_AuthorizationSource}"

  tooltip = "Representations:AuthorizationSource"

href = "../Package/Representations/AuthorizationSource/index.html"
]

DDI4_EnumerationDomain [
  label = "{<id>DDI_EnumerationDomain}"

  tooltip = "Representations:EnumerationDomain"

href = "../Package/Representations/EnumerationDomain/index.html"
]

DDI4_ValueAndConceptDescription [
  label = "{<id>DDI_ValueAndConceptDescription}"

  tooltip = "Representations:ValueAndConceptDescription"

href = "../Package/Representations/ValueAndConceptDescription/index.html"
]

DDI4_ValueDomain [
  label = "{<id>DDI_ValueDomain}"

  tooltip = "Representations:ValueDomain"

href = "../Package/Representations/ValueDomain/index.html"
]

}

DDI4_AlgorithmOverview -> DDI4_AnnotatedIdentifiable [arrowhead=onormal color="#000000"];

  DDI4_AlgorithmOverview:AlgorithmOverview_isDescribedIn_association -> DDI4_ExternalMaterial [ arrowhead=none arrowtail=odiamond labeldistance=1.9 taillabel="0..n" headlabel="0..n" edgetooltip="isDescribedIn" fontcolor="black" color="#00000"];

  DDI4_AlgorithmOverview:AlgorithmOverview_realizes_association -> DDI4_Algorithm [ arrowhead=none arrowtail=none  edgetooltip="realizes" fontcolor="black" color="#00000"];

DDI4_BusinessAlgorithm -> DDI4_AlgorithmOverview [arrowhead=onormal color="#000000"];

DDI4_BusinessProcess -> DDI4_WorkflowProcess [arrowhead=onormal color="#000000"];

DDI4_ComputationAction -> DDI4_Act [arrowhead=onormal color="#000000"];

DDI4_Concept -> DDI4_AnnotatedIdentifiable [arrowhead=onormal color="#000000"];

  DDI4_Concept:Concept_realizes_association -> DDI4_Signified [ arrowhead=none arrowtail=none  edgetooltip="realizes" fontcolor="black" color="#00000"];

DDI4_Coverage -> DDI4_AnnotatedIdentifiable [arrowhead=onormal color="#000000"];

  DDI4_Coverage:Coverage_hasTemporalCoverage_association -> DDI4_TemporalCoverage [ arrowhead=none arrowtail=odiamond labeldistance=1.9 taillabel="0..n" headlabel="0..1" edgetooltip="hasTemporalCoverage" fontcolor="black" color="#00000"];

  DDI4_Coverage:Coverage_hasTopicalCoverage_association -> DDI4_TopicalCoverage [ arrowhead=none arrowtail=odiamond labeldistance=1.9 taillabel="0..n" headlabel="0..1" edgetooltip="hasTopicalCoverage" fontcolor="black" color="#00000"];

  DDI4_Coverage:Coverage_hasSpatialCoverage_association -> DDI4_SpatialCoverage [ arrowhead=none arrowtail=odiamond labeldistance=1.9 taillabel="0..n" headlabel="0..1" edgetooltip="hasSpatialCoverage" fontcolor="black" color="#00000"];

DDI4_DataPipeline -> DDI4_AnnotatedIdentifiable [arrowhead=onormal color="#000000"];

  DDI4_DataPipeline:DataPipeline_isInStudy_association -> DDI4_Study [ arrowhead=none arrowtail=odiamond labeldistance=1.9 taillabel="0..n" headlabel="0..1" edgetooltip="isInStudy" fontcolor="black" color="#00000"];

  DDI4_DataPipeline:DataPipeline_realizes_association -> DDI4_SimpleCollection [ arrowhead=none arrowtail=none  edgetooltip="realizes" fontcolor="black" color="#00000"];

  DDI4_DataPipeline:DataPipeline_definingConcept_association -> DDI4_Concept [ arrowhead=none arrowtail=odiamond labeldistance=1.9 taillabel="0..n" headlabel="0..n" edgetooltip="definingConcept" fontcolor="black" color="#00000"];

DDI4_DataStore -> DDI4_AnnotatedIdentifiable [arrowhead=onormal color="#000000"];

  DDI4_DataStore:DataStore_realizes_association -> DDI4_StructuredCollection [ arrowhead=none arrowtail=none  edgetooltip="realizes" fontcolor="black" color="#00000"];

  DDI4_DataStore:DataStore_isStructuredBy_association -> DDI4_LogicalRecordRelationStructure [ arrowhead=none arrowtail=odiamond labeldistance=1.9 taillabel="0..n" headlabel="0..n" edgetooltip="isStructuredBy" fontcolor="black" color="#00000"];

  DDI4_DataStore:DataStore_isInStudy_association -> DDI4_Study [ arrowhead=none arrowtail=odiamond labeldistance=1.9 taillabel="0..1" headlabel="0..n" edgetooltip="isInStudy" fontcolor="black" color="#00000"];

  DDI4_DataStore:DataStore_usesRecordRelation_association -> DDI4_RecordRelation [ arrowhead=none arrowtail=odiamond labeldistance=1.9 taillabel="0..n" headlabel="0..1" edgetooltip="usesRecordRelation" fontcolor="black" color="#00000"];

  DDI4_DataStore:DataStore_definingConcept_association -> DDI4_Concept [ arrowhead=none arrowtail=odiamond labeldistance=1.9 taillabel="0..n" headlabel="0..n" edgetooltip="definingConcept" fontcolor="black" color="#00000"];

DDI4_DesignOverview -> DDI4_AnnotatedIdentifiable [arrowhead=onormal color="#000000"];

  DDI4_DesignOverview:DesignOverview_isDescribedIn_association -> DDI4_ExternalMaterial [ arrowhead=none arrowtail=odiamond labeldistance=1.9 taillabel="0..n" headlabel="0..n" edgetooltip="isDescribedIn" fontcolor="black" color="#00000"];

  DDI4_DesignOverview:DesignOverview_assumesPrecondition_association -> DDI4_Precondition [ arrowhead=none arrowtail=odiamond labeldistance=1.9 taillabel="0..n" headlabel="0..n" edgetooltip="assumesPrecondition" fontcolor="black" color="#00000"];

  DDI4_DesignOverview:DesignOverview_specifiesGoal_association -> DDI4_Goal [ arrowhead=none arrowtail=odiamond labeldistance=1.9 taillabel="0..n" headlabel="0..n" edgetooltip="specifiesGoal" fontcolor="black" color="#00000"];

  DDI4_DesignOverview:DesignOverview_expressesAlgorithm_association -> DDI4_AlgorithmOverview [ arrowhead=none arrowtail=odiamond labeldistance=1.9 taillabel="0..n" headlabel="0..n" edgetooltip="expressesAlgorithm" fontcolor="black" color="#00000"];

  DDI4_DesignOverview:DesignOverview_implementedBy_association -> DDI4_WorkflowProcess [ arrowhead=none arrowtail=odiamond labeldistance=1.9 taillabel="0..n" headlabel="0..n" edgetooltip="implementedBy" fontcolor="black" color="#00000"];

  DDI4_DesignOverview:DesignOverview_realizes_association -> DDI4_Design [ arrowhead=none arrowtail=none  edgetooltip="realizes" fontcolor="black" color="#00000"];

DDI4_ExternalMaterial -> DDI4_Identifiable [arrowhead=onormal color="#000000"];

DDI4_IfThenElse -> DDI4_ConditionalControlStep [arrowhead=onormal color="#000000"];

  DDI4_IfThenElse:IfThenElse_elseExecutes_association -> DDI4_WorkflowStepSequence [ arrowhead=none arrowtail=odiamond labeldistance=1.9 taillabel="0..n" headlabel="0..1" edgetooltip="elseExecutes" fontcolor="black" color="#00000"];

DDI4_InstanceVariable -> DDI4_RepresentedVariable [arrowhead=onormal color="#000000"];

  DDI4_InstanceVariable:InstanceVariable_measures_association -> DDI4_Population [ arrowhead=none arrowtail=odiamond labeldistance=1.9 taillabel="0..n" headlabel="0..1" edgetooltip="measures" fontcolor="black" color="#00000"];

  DDI4_InstanceVariable:InstanceVariable_basedOnRepresentedVariable_association -> DDI4_RepresentedVariable [ arrowhead=none arrowtail=odiamond labeldistance=1.9 taillabel="0..n" headlabel="0..1" edgetooltip="basedOnRepresentedVariable" fontcolor="black" color="#00000"];

  DDI4_InstanceVariable:InstanceVariable_basedOnConceptualVariable_association -> DDI4_ConceptualVariable [ arrowhead=none arrowtail=odiamond labeldistance=1.9 taillabel="0..n" headlabel="0..1" edgetooltip="basedOnConceptualVariable" fontcolor="black" color="#00000"];

  DDI4_InstanceVariable:InstanceVariable_takesPlatformSpecificSentinelValues_association -> DDI4_SentinelValueDomain [ arrowhead=none arrowtail=odiamond labeldistance=1.9 taillabel="0..n" headlabel="0..1" edgetooltip="takesPlatformSpecificSentinelValues" fontcolor="black" color="#00000"];

  DDI4_InstanceVariable:InstanceVariable_sourceCapture_association -> DDI4_Capture [ arrowhead=none arrowtail=odiamond labeldistance=1.9 taillabel="0..n" headlabel="0..1" edgetooltip="sourceCapture" fontcolor="black" color="#00000"];

  DDI4_InstanceVariable:InstanceVariable_generatedBy_association -> DDI4_Act [ arrowhead=none arrowtail=odiamond labeldistance=1.9 taillabel="0..n" headlabel="0..1" edgetooltip="generatedBy" fontcolor="black" color="#00000"];

DDI4_InstanceVariableRelationStructure -> DDI4_AnnotatedIdentifiable [arrowhead=onormal color="#000000"];

  DDI4_InstanceVariableRelationStructure:InstanceVariableRelationStructure_realizes_association -> DDI4_RelationStructure [ arrowhead=none arrowtail=none  edgetooltip="realizes" fontcolor="black" color="#00000"];

DDI4_LogicalRecordRelationStructure -> DDI4_Identifiable [arrowhead=onormal color="#000000"];

  DDI4_LogicalRecordRelationStructure:LogicalRecordRelationStructure_realizes_association -> DDI4_RelationStructure [ arrowhead=none arrowtail=none  edgetooltip="realizes" fontcolor="black" color="#00000"];

DDI4_Loop -> DDI4_ConditionalControlStep [arrowhead=onormal color="#000000"];

DDI4_MetadataDrivenAction -> DDI4_Act [arrowhead=onormal color="#000000"];

DDI4_MethodologyOverview -> DDI4_AnnotatedIdentifiable [arrowhead=onormal color="#000000"];

  DDI4_MethodologyOverview:MethodologyOverview_isDescribedIn_association -> DDI4_ExternalMaterial [ arrowhead=none arrowtail=odiamond labeldistance=1.9 taillabel="0..n" headlabel="0..n" edgetooltip="isDescribedIn" fontcolor="black" color="#00000"];

  DDI4_MethodologyOverview:MethodologyOverview_hasDesign_association -> DDI4_DesignOverview [ arrowhead=none arrowtail=odiamond labeldistance=1.9 taillabel="0..n" headlabel="0..n" edgetooltip="hasDesign" fontcolor="black" color="#00000"];

  DDI4_MethodologyOverview:MethodologyOverview_isExpressedBy_association -> DDI4_AlgorithmOverview [ arrowhead=none arrowtail=odiamond labeldistance=1.9 taillabel="0..n" headlabel="0..n" edgetooltip="isExpressedBy" fontcolor="black" color="#00000"];

  DDI4_MethodologyOverview:MethodologyOverview_componentMethodology_association -> DDI4_MethodologyOverview [ arrowhead=none arrowtail=odiamond labeldistance=1.9 taillabel="0..n" headlabel="0..n" edgetooltip="componentMethodology" fontcolor="black" color="#00000"];

  DDI4_MethodologyOverview:MethodologyOverview_realizes_association -> DDI4_Methodology [ arrowhead=none arrowtail=none  edgetooltip="realizes" fontcolor="black" color="#00000"];

DDI4_Parameter -> DDI4_ [arrowhead=onormal color="#000000"];

  DDI4_Parameter:Parameter_valueRepresentation_association -> DDI4_ValueDomain [ arrowhead=none arrowtail=odiamond labeldistance=1.9 taillabel="0..n" headlabel="0..1" edgetooltip="valueRepresentation" fontcolor="black" color="#00000"];

DDI4_RepeatUntil -> DDI4_ConditionalControlStep [arrowhead=onormal color="#000000"];

DDI4_RepeatWhile -> DDI4_ConditionalControlStep [arrowhead=onormal color="#000000"];

DDI4_SentinelValueDomain -> DDI4_ValueDomain [arrowhead=onormal color="#000000"];

  DDI4_SentinelValueDomain:SentinelValueDomain_takesConceptsFrom_association -> DDI4_SentinelConceptualDomain [ arrowhead=none arrowtail=odiamond labeldistance=1.9 taillabel="0..n" headlabel="0..1" edgetooltip="takesConceptsFrom" fontcolor="black" color="#00000"];

  DDI4_SentinelValueDomain:SentinelValueDomain_describedValueDomain_association -> DDI4_ValueAndConceptDescription [ arrowhead=none arrowtail=odiamond labeldistance=1.9 taillabel="0..n" headlabel="0..1" edgetooltip="describedValueDomain" fontcolor="black" color="#00000"];

  DDI4_SentinelValueDomain:SentinelValueDomain_enumeratedValueDomain_association -> DDI4_EnumerationDomain [ arrowhead=none arrowtail=odiamond labeldistance=1.9 taillabel="0..n" headlabel="0..1" edgetooltip="enumeratedValueDomain" fontcolor="black" color="#00000"];

DDI4_SpatialCoverage -> DDI4_AnnotatedIdentifiable [arrowhead=onormal color="#000000"];

  DDI4_SpatialCoverage:SpatialCoverage_hasBoundingBox_association -> DDI4_BoundingBox [ arrowhead=none arrowtail=odiamond labeldistance=1.9 taillabel="0..n" headlabel="0..n" edgetooltip="hasBoundingBox" fontcolor="black" color="#00000"];

  DDI4_SpatialCoverage:SpatialCoverage_usesGeographicUnitTypeClassification_association -> DDI4_GeographicUnitTypeClassification [ arrowhead=none arrowtail=odiamond labeldistance=1.9 taillabel="0..n" headlabel="0..n" edgetooltip="usesGeographicUnitTypeClassification" fontcolor="black" color="#00000"];

  DDI4_SpatialCoverage:SpatialCoverage_usesGeographicUnitClassification_association -> DDI4_GeographicUnitClassification [ arrowhead=none arrowtail=odiamond labeldistance=1.9 taillabel="0..n" headlabel="0..n" edgetooltip="usesGeographicUnitClassification" fontcolor="black" color="#00000"];

  DDI4_SpatialCoverage:SpatialCoverage_includesGeographicUnitType_association -> DDI4_UnitType [ arrowhead=none arrowtail=odiamond labeldistance=1.9 taillabel="0..n" headlabel="0..n" edgetooltip="includesGeographicUnitType" fontcolor="black" color="#00000"];

  DDI4_SpatialCoverage:SpatialCoverage_includesGeographicUnit_association -> DDI4_GeographicUnit [ arrowhead=none arrowtail=odiamond labeldistance=1.9 taillabel="0..n" headlabel="0..n" edgetooltip="includesGeographicUnit" fontcolor="black" color="#00000"];

  DDI4_SpatialCoverage:SpatialCoverage_highestGeographicUnitTypeCovered_association -> DDI4_UnitType [ arrowhead=none arrowtail=odiamond labeldistance=1.9 taillabel="0..n" headlabel="0..n" edgetooltip="highestGeographicUnitTypeCovered" fontcolor="black" color="#00000"];

  DDI4_SpatialCoverage:SpatialCoverage_lowestGeographicUnitTypeCovered_association -> DDI4_UnitType [ arrowhead=none arrowtail=odiamond labeldistance=1.9 taillabel="0..n" headlabel="0..n" edgetooltip="lowestGeographicUnitTypeCovered" fontcolor="black" color="#00000"];

DDI4_Split -> DDI4_TemporalRelationControlStep [arrowhead=onormal color="#000000"];

DDI4_SplitJoin -> DDI4_TemporalRelationControlStep [arrowhead=onormal color="#000000"];

DDI4_Study -> DDI4_AnnotatedIdentifiable [arrowhead=onormal color="#000000"];

  DDI4_Study:Study_partOfSeries_association -> DDI4_StudySeries [ arrowhead=none arrowtail=odiamond labeldistance=1.9 taillabel="0..n" headlabel="0..n" edgetooltip="partOfSeries" fontcolor="black" color="#00000"];

  DDI4_Study:Study_hasCoverage_association -> DDI4_Coverage [ arrowhead=none arrowtail=odiamond labeldistance=1.9 taillabel="0..n" headlabel="0..n" edgetooltip="hasCoverage" fontcolor="black" color="#00000"];

  DDI4_Study:Study_hasAnalysisUnit_association -> DDI4_UnitType [ arrowhead=none arrowtail=odiamond labeldistance=1.9 taillabel="0..n" headlabel="0..n" edgetooltip="hasAnalysisUnit" fontcolor="black" color="#00000"];

  DDI4_Study:Study_hasPopulation_association -> DDI4_Population [ arrowhead=none arrowtail=odiamond labeldistance=1.9 taillabel="0..n" headlabel="0..n" edgetooltip="hasPopulation" fontcolor="black" color="#00000"];

  DDI4_Study:Study_hasUniverse_association -> DDI4_Universe [ arrowhead=none arrowtail=odiamond labeldistance=1.9 taillabel="0..n" headlabel="0..n" edgetooltip="hasUniverse" fontcolor="black" color="#00000"];

  DDI4_Study:Study_hasDesign_association -> DDI4_DesignOverview [ arrowhead=none arrowtail=odiamond labeldistance=1.9 taillabel="0..n" headlabel="0..1" edgetooltip="hasDesign" fontcolor="black" color="#00000"];

  DDI4_Study:Study_hasProcess_association -> DDI4_ProcessOverview [ arrowhead=none arrowtail=odiamond labeldistance=1.9 taillabel="0..n" headlabel="0..n" edgetooltip="hasProcess" fontcolor="black" color="#00000"];

  DDI4_Study:Study_hasInstrument_association -> DDI4_ImplementedInstrument [ arrowhead=none arrowtail=odiamond labeldistance=1.9 taillabel="0..n" headlabel="0..n" edgetooltip="hasInstrument" fontcolor="black" color="#00000"];

  DDI4_Study:Study_hasEmbargo_association -> DDI4_Embargo [ arrowhead=none arrowtail=odiamond labeldistance=1.9 taillabel="0..n" headlabel="0..1" edgetooltip="hasEmbargo" fontcolor="black" color="#00000"];

  DDI4_Study:Study_accessInformation_association -> DDI4_Access [ arrowhead=none arrowtail=odiamond labeldistance=1.9 taillabel="0..n" headlabel="0..1" edgetooltip="accessInformation" fontcolor="black" color="#00000"];

  DDI4_Study:Study_hasFundingInformation_association -> DDI4_FundingInformation [ arrowhead=none arrowtail=odiamond labeldistance=1.9 taillabel="0..n" headlabel="0..n" edgetooltip="hasFundingInformation" fontcolor="black" color="#00000"];

  DDI4_Study:Study_hasAuthorizationSource_association -> DDI4_AuthorizationSource [ arrowhead=none arrowtail=odiamond labeldistance=1.9 taillabel="0..n" headlabel="0..n" edgetooltip="hasAuthorizationSource" fontcolor="black" color="#00000"];

  DDI4_Study:Study_hasQualityStatement_association -> DDI4_QualityStatement [ arrowhead=none arrowtail=odiamond labeldistance=1.9 taillabel="0..n" headlabel="0..1" edgetooltip="hasQualityStatement" fontcolor="black" color="#00000"];

  DDI4_Study:Study_hasBudget_association -> DDI4_Budget [ arrowhead=none arrowtail=odiamond labeldistance=1.9 taillabel="0..n" headlabel="0..n" edgetooltip="hasBudget" fontcolor="black" color="#00000"];

  DDI4_Study:Study_hasInstanceVariable_association -> DDI4_InstanceVariable [ arrowhead=none arrowtail=odiamond labeldistance=1.9 taillabel="0..n" headlabel="0..n" edgetooltip="hasInstanceVariable" fontcolor="black" color="#00000"];

  DDI4_Study:Study_realizes_association -> DDI4_CollectionMember [ arrowhead=none arrowtail=none  edgetooltip="realizes" fontcolor="black" color="#00000"];

  DDI4_Study:Study_hasExPostEvaluation_association -> DDI4_ExPostEvaluation [ arrowhead=none arrowtail=odiamond labeldistance=1.9 taillabel="0..1" headlabel="0..n" edgetooltip="hasExPostEvaluation" fontcolor="black" color="#00000"];

  DDI4_Study:Study_hasSamplingProcedure_association -> DDI4_SamplingProcedure [ arrowhead=none arrowtail=odiamond labeldistance=1.9 taillabel="0..n" headlabel="0..n" edgetooltip="hasSamplingProcedure" fontcolor="black" color="#00000"];

  DDI4_Study:Study_hasMethodology_association -> DDI4_MethodologyOverview [ arrowhead=none arrowtail=odiamond labeldistance=1.9 taillabel="0..n" headlabel="0..n" edgetooltip="hasMethodology" fontcolor="black" color="#00000"];

  DDI4_Study:Study_hasAlgorithm_association -> DDI4_AlgorithmOverview [ arrowhead=none arrowtail=odiamond labeldistance=1.9 taillabel="0..n" headlabel="0..n" edgetooltip="hasAlgorithm" fontcolor="black" color="#00000"];

  DDI4_Study:Study_hasConcept_association -> DDI4_Concept [ arrowhead=none arrowtail=odiamond labeldistance=1.9 taillabel="0..n" headlabel="0..n" edgetooltip="hasConcept" fontcolor="black" color="#00000"];

  DDI4_Study:Study_hasVariableCollection_association -> DDI4_VariableCollection [ arrowhead=none arrowtail=odiamond labeldistance=1.9 taillabel="0..n" headlabel="0..n" edgetooltip="hasVariableCollection" fontcolor="black" color="#00000"];

  DDI4_Study:Study_hasAgentListing_association -> DDI4_AgentListing [ arrowhead=none arrowtail=odiamond labeldistance=1.9 taillabel="0..n" headlabel="0..n" edgetooltip="hasAgentListing" fontcolor="black" color="#00000"];

DDI4_SubstantiveValueDomain -> DDI4_ValueDomain [arrowhead=onormal color="#000000"];

  DDI4_SubstantiveValueDomain:SubstantiveValueDomain_takesConceptsFrom_association -> DDI4_SubstantiveConceptualDomain [ arrowhead=none arrowtail=odiamond labeldistance=1.9 taillabel="0..n" headlabel="0..1" edgetooltip="takesConceptsFrom" fontcolor="black" color="#00000"];

  DDI4_SubstantiveValueDomain:SubstantiveValueDomain_describedValueDomain_association -> DDI4_ValueAndConceptDescription [ arrowhead=none arrowtail=odiamond labeldistance=1.9 taillabel="0..n" headlabel="0..1" edgetooltip="describedValueDomain" fontcolor="black" color="#00000"];

  DDI4_SubstantiveValueDomain:SubstantiveValueDomain_enumeratedValueDomain_association -> DDI4_EnumerationDomain [ arrowhead=none arrowtail=odiamond labeldistance=1.9 taillabel="0..n" headlabel="0..1" edgetooltip="enumeratedValueDomain" fontcolor="black" color="#00000"];

DDI4_TemporalCoverage -> DDI4_AnnotatedIdentifiable [arrowhead=onormal color="#000000"];

DDI4_TopicalCoverage -> DDI4_AnnotatedIdentifiable [arrowhead=onormal color="#000000"];

DDI4_UnitDataRecord -> DDI4_LogicalRecord [arrowhead=onormal color="#000000"];

  DDI4_UnitDataRecord:UnitDataRecord_isStructuredBy_association -> DDI4_InstanceVariableRelationStructure [ arrowhead=none arrowtail=odiamond labeldistance=1.9 taillabel="0..n" headlabel="0..n" edgetooltip="isStructuredBy" fontcolor="black" color="#00000"];

  DDI4_UnitDataRecord:UnitDataRecord_isViewedFrom_association -> DDI4_UnitDataViewpoint [ arrowhead=none arrowtail=odiamond labeldistance=1.9 taillabel="0..n" headlabel="0..n" edgetooltip="isViewedFrom" fontcolor="black" color="#00000"];

DDI4_WorkflowStepSequence -> DDI4_WorkflowControlStep [arrowhead=onormal color="#000000"];

}