digraph G {
fontname = "Bitstream Vera Sans"
fontsize = 8

overlap=false;

compound=true;    

node [
  fontname = "Bitstream Vera Sans"
  fontsize = 8
  shape = "record"
]

edge [
  fontname = "Bitstream Vera Sans"
  fontsize = 8
  mode="ipsep"            
]


DDI4_Concept [
  label = "{<id>Concept | + name : ObjectName \l + definition : InternationalStructuredString \l + displayLabel : LabelForDisplay \l \l \l| <Concept_realizes_association> realizes \l \l}"

  tooltip = "Conceptual:Concept"


]

subgraph SignificationPattern {
label = "SignificationPattern"    

  node [ color = "#0000ff" ]

DDI4_Signified [
  label = "{<id>DDI_Signified}"

  tooltip = "SignificationPattern:Signified"

href = "../Package/SignificationPattern/Signified/index.html"
]

}

subgraph Identification {
label = "Identification"    

  node [ color = "#0000ff" ]

DDI4_AnnotatedIdentifiable [
  label = "{<id>DDI_AnnotatedIdentifiable}"

  tooltip = "Identification:AnnotatedIdentifiable"

href = "../Package/Identification/AnnotatedIdentifiable/index.html"
]

}

DDI4_Concept -> DDI4_AnnotatedIdentifiable [arrowhead=onormal color="#000000"];

  DDI4_Concept:Concept_realizes_association -> DDI4_Signified [ arrowhead=none arrowtail=none  edgetooltip="realizes" fontcolor="black" color="#00000"];

}