This file was created by list-orphans version 1.0.0
package,classname,used by inherritance
StructuredDataTypes,ConditionalText,true
StructuredDataTypes,ContentDateOffset,true
StructuredDataTypes,FixedText,true
StructuredDataTypes,Image,false
StructuredDataTypes,LiteralText,true
StructuredDataTypes,LocationName,true
StructuredDataTypes,RangeValue,true
Conceptual,ConceptSystemCorrespondence,false
Conceptual,ConceptualDomain,false
FormatDescription,PhysicalDataSet,false
FormatDescription,SegmentByText,true
FormatDescription,UnitSegmentLayout,true
CustomMetadata,ControlledVocabulary,false
CustomMetadata,CustomInstance,false
StudyRelated,StudyControl,true
BusinessWorkflow,BusinessAlgorithm,true
BusinessWorkflow,DataPipeline,false
Utility,DocumentInformation,false
Workflows,ComputationAction,true
Workflows,ConditionalControlStep,true
Workflows,IfThenElse,true
Workflows,Loop,true
Workflows,MetadataDrivenAction,true
Workflows,RepeatUntil,true
Workflows,RepeatWhile,true
Workflows,Split,true
Workflows,SplitJoin,true
Workflows,TemporalRelationControlStep,true
Methodologies,BusinessFunction,false
DataCapture,BooleanResponseDomain,true
DataCapture,CodeListResponseDomain,true
DataCapture,InstanceMeasurement,true
DataCapture,InstanceQuestion,true
DataCapture,InstrumentCode,true
DataCapture,InstrumentComponent,true
DataCapture,NumericResponseDomain,true
DataCapture,RankingResponseDomain,true
DataCapture,ScaleResponseDomain,true
DataCapture,Statement,true
DataCapture,TextResponseDomain,true
LogicalDataDescription,DataStoreLibrary,false
LogicalDataDescription,ViewpointRole,false
Agents,Individual,true
Agents,Machine,true
Representations,ClassificationFamily,false
Representations,CorrespondenceTable,false
