digraph G {
fontname = "Bitstream Vera Sans"
fontsize = 8

overlap=false;

compound=true;    

node [
  fontname = "Bitstream Vera Sans"
  fontsize = 8
  shape = "record"
]

edge [
  fontname = "Bitstream Vera Sans"
  fontsize = 8
  mode="ipsep"            
]


DDI4_ComparisonMap [
  label = "{<id>ComparisonMap | + hasCorrespondenceType : CorrespondenceType \l \l \l| <ComparisonMap_source_association> source \l| <ComparisonMap_target_association> target \l \l}"

  tooltip = "CollectionsPattern:ComparisonMap"


]

subgraph CollectionsPattern {
label = "CollectionsPattern"    

  node [ color = "#0000ff" ]

DDI4_CollectionMember [
  label = "{<id>DDI_CollectionMember}"

  tooltip = "CollectionsPattern:CollectionMember"

href = "../Package/CollectionsPattern/CollectionMember/index.html"
]

}

DDI4_ComparisonMap -> DDI4_ [arrowhead=onormal color="#000000"];

  DDI4_ComparisonMap:ComparisonMap_source_association -> DDI4_CollectionMember [ arrowhead=none arrowtail=diamond labeldistance=1.9 taillabel="0..n" headlabel="1..n" edgetooltip="source" fontcolor="black" color="#00000"];

  DDI4_ComparisonMap:ComparisonMap_target_association -> DDI4_CollectionMember [ arrowhead=none arrowtail=odiamond labeldistance=1.9 taillabel="0..n" headlabel="0..n" edgetooltip="target" fontcolor="black" color="#00000"];

}