digraph G {
fontname = "Bitstream Vera Sans"
fontsize = 8

overlap=false;

compound=true;    

node [
  fontname = "Bitstream Vera Sans"
  fontsize = 8
  shape = "record"
]

edge [
  fontname = "Bitstream Vera Sans"
  fontsize = 8
  mode="ipsep"            
]


DDI4_AgentListing [
  label = "{<id>AgentListing | + type : CollectionType \l + name : ObjectName \l + purpose : InternationalStructuredString \l + contains : AgentIndicator \l + isOrdered :  \l \l \l| <AgentListing_realizes_association> realizes \l| <AgentListing_isStructuredBy_association> isStructuredBy \l| <AgentListing_maintenanceUnit_association> maintenanceUnit \l| <AgentListing_definingConcept_association> definingConcept \l \l}"

  tooltip = "Agents:AgentListing"


]

DDI4_AgentRelationStructure [
  label = "{<id>AgentRelationStructure | + effectiveDates : DateRange \l + privacy : ExternalControlledVocabularyEntry \l + purpose : InternationalStructuredString \l + hasRelationSpecification : RelationSpecification \l + semantic : ExternalControlledVocabularyEntry \l + totality : TotalityType \l + hasMemberRelation : AgentRelation \l \l \l| <AgentRelationStructure_realizes_association> realizes \l \l}"

  tooltip = "Agents:AgentRelationStructure"


]

DDI4_Concept [
  label = "{<id>Concept | + name : ObjectName \l + definition : InternationalStructuredString \l + displayLabel : LabelForDisplay \l \l \l| <Concept_realizes_association> realizes \l \l}"

  tooltip = "Conceptual:Concept"


]

DDI4_ExternalMaterial [
  label = "{<id>ExternalMaterial | + typeOfMaterial : ExternalControlledVocabularyEntry \l + descriptiveText : InternationalStructuredString \l + uri :  \l + relationshipDescription : InternationalStructuredString \l + mimeType : ExternalControlledVocabularyEntry \l + usesSegment : Segment \l + citationOfExternalMaterial : Annotation \l \l \l| \l \l}"

  tooltip = "Utility:ExternalMaterial"


]

DDI4_Individual [
  label = "{<id>Individual | + hasIndividualName : IndividualName \l + ddiId :  \l + hasContactInformation : ContactInformation \l \l \l| \l \l}"

  tooltip = "Agents:Individual"


]

DDI4_Machine [
  label = "{<id>Machine | + typeOfMachine : ExternalControlledVocabularyEntry \l + name : ObjectName \l + hasAccessLocation : AccessLocation \l + function : ExternalControlledVocabularyEntry \l + machineInterface : ExternalControlledVocabularyEntry \l + ownerOperatorContact : ContactInformation \l \l \l| \l \l}"

  tooltip = "Agents:Machine"


]

DDI4_Organization [
  label = "{<id>Organization | + hasOrganizationName : OrganizationName \l + ddiId :  \l + hasContactInformation : ContactInformation \l \l \l| \l \l}"

  tooltip = "Agents:Organization"


]

subgraph SignificationPattern {
label = "SignificationPattern"    

  node [ color = "#0000ff" ]

DDI4_Signified [
  label = "{<id>DDI_Signified}"

  tooltip = "SignificationPattern:Signified"

href = "../Package/SignificationPattern/Signified/index.html"
]

}

subgraph CollectionsPattern {
label = "CollectionsPattern"    

  node [ color = "#0000ff" ]

DDI4_RelationStructure [
  label = "{<id>DDI_RelationStructure}"

  tooltip = "CollectionsPattern:RelationStructure"

href = "../Package/CollectionsPattern/RelationStructure/index.html"
]

DDI4_StructuredCollection [
  label = "{<id>DDI_StructuredCollection}"

  tooltip = "CollectionsPattern:StructuredCollection"

href = "../Package/CollectionsPattern/StructuredCollection/index.html"
]

}

subgraph Identification {
label = "Identification"    

  node [ color = "#0000ff" ]

DDI4_AnnotatedIdentifiable [
  label = "{<id>DDI_AnnotatedIdentifiable}"

  tooltip = "Identification:AnnotatedIdentifiable"

href = "../Package/Identification/AnnotatedIdentifiable/index.html"
]

DDI4_Identifiable [
  label = "{<id>DDI_Identifiable}"

  tooltip = "Identification:Identifiable"

href = "../Package/Identification/Identifiable/index.html"
]

}

subgraph Agents {
label = "Agents"    

  node [ color = "#0000ff" ]

DDI4_Agent [
  label = "{<id>DDI_Agent}"

  tooltip = "Agents:Agent"

href = "../Package/Agents/Agent/index.html"
]

}

DDI4_AgentListing -> DDI4_Identifiable [arrowhead=onormal color="#000000"];

  DDI4_AgentListing:AgentListing_realizes_association -> DDI4_StructuredCollection [ arrowhead=none arrowtail=none  edgetooltip="realizes" fontcolor="black" color="#00000"];

  DDI4_AgentListing:AgentListing_isStructuredBy_association -> DDI4_AgentRelationStructure [ arrowhead=none arrowtail=odiamond labeldistance=1.9 taillabel="0..n" headlabel="0..n" edgetooltip="isStructuredBy" fontcolor="black" color="#00000"];

  DDI4_AgentListing:AgentListing_maintenanceUnit_association -> DDI4_Agent [ arrowhead=none arrowtail=odiamond labeldistance=1.9 taillabel="0..n" headlabel="0..1" edgetooltip="maintenanceUnit" fontcolor="black" color="#00000"];

  DDI4_AgentListing:AgentListing_definingConcept_association -> DDI4_Concept [ arrowhead=none arrowtail=odiamond labeldistance=1.9 taillabel="0..n" headlabel="0..n" edgetooltip="definingConcept" fontcolor="black" color="#00000"];

DDI4_AgentRelationStructure -> DDI4_Identifiable [arrowhead=onormal color="#000000"];

  DDI4_AgentRelationStructure:AgentRelationStructure_realizes_association -> DDI4_RelationStructure [ arrowhead=none arrowtail=none  edgetooltip="realizes" fontcolor="black" color="#00000"];

DDI4_Concept -> DDI4_AnnotatedIdentifiable [arrowhead=onormal color="#000000"];

  DDI4_Concept:Concept_realizes_association -> DDI4_Signified [ arrowhead=none arrowtail=none  edgetooltip="realizes" fontcolor="black" color="#00000"];

DDI4_ExternalMaterial -> DDI4_Identifiable [arrowhead=onormal color="#000000"];

DDI4_Individual -> DDI4_Agent [arrowhead=onormal color="#000000"];

DDI4_Machine -> DDI4_Agent [arrowhead=onormal color="#000000"];

DDI4_Organization -> DDI4_Agent [arrowhead=onormal color="#000000"];

}