digraph G {
fontname = "Bitstream Vera Sans"
fontsize = 8

overlap=false;

compound=true;    

node [
  fontname = "Bitstream Vera Sans"
  fontsize = 8
  shape = "record"
]

edge [
  fontname = "Bitstream Vera Sans"
  fontsize = 8
  mode="ipsep"            
]


DDI4_AgentIndicator [
  label = "{<id>AgentIndicator | + index :  \l \l \l| <AgentIndicator_member_association> member \l| <AgentIndicator_realizes_association> realizes \l \l}"

  tooltip = "StructuredDataTypes:AgentIndicator"


]

subgraph CollectionsPattern {
label = "CollectionsPattern"    

  node [ color = "#0000ff" ]

DDI4_MemberIndicator [
  label = "{<id>DDI_MemberIndicator}"

  tooltip = "CollectionsPattern:MemberIndicator"

href = "../Package/CollectionsPattern/MemberIndicator/index.html"
]

}

subgraph Agents {
label = "Agents"    

  node [ color = "#0000ff" ]

DDI4_Agent [
  label = "{<id>DDI_Agent}"

  tooltip = "Agents:Agent"

href = "../Package/Agents/Agent/index.html"
]

}

DDI4_AgentIndicator -> DDI4_ [arrowhead=onormal color="#000000"];

  DDI4_AgentIndicator:AgentIndicator_member_association -> DDI4_Agent [ arrowhead=none arrowtail=diamond labeldistance=1.9 taillabel="0..n" headlabel="1..1" edgetooltip="member" fontcolor="black" color="#00000"];

  DDI4_AgentIndicator:AgentIndicator_realizes_association -> DDI4_MemberIndicator [ arrowhead=none arrowtail=none  edgetooltip="realizes" fontcolor="black" color="#00000"];

}