digraph G {
fontname = "Bitstream Vera Sans"
fontsize = 8

overlap=false;

compound=true;    

node [
  fontname = "Bitstream Vera Sans"
  fontsize = 8
  shape = "record"
]

edge [
  fontname = "Bitstream Vera Sans"
  fontsize = 8
  mode="ipsep"            
]


DDI4_AreaCoverage [
  label = "{<id>AreaCoverage | + typeOfArea : ExternalControlledVocabularyEntry \l + measurementUnit : ExternalControlledVocabularyEntry \l + areaMeasure :  \l \l \l| \l \l}"

  tooltip = "StructuredDataTypes:AreaCoverage"


]

DDI4_AreaCoverage -> DDI4_ [arrowhead=onormal color="#000000"];

}