digraph G {
fontname = "Bitstream Vera Sans"
fontsize = 8

overlap=false;

compound=true;    

node [
  fontname = "Bitstream Vera Sans"
  fontsize = 8
  shape = "record"
]

edge [
  fontname = "Bitstream Vera Sans"
  fontsize = 8
  mode="ipsep"            
]


DDI4_ClassificationItemRelation [
  label = "{<id>ClassificationItemRelation | + totality : TotalityType \l + hasRelationSpecification : RelationSpecification \l + semantic : ExternalControlledVocabularyEntry \l \l \l| <ClassificationItemRelation_realizes_association> realizes \l| <ClassificationItemRelation_source_association> source \l| <ClassificationItemRelation_target_association> target \l \l}"

  tooltip = "StructuredDataTypes:ClassificationItemRelation"


]

subgraph CollectionsPattern {
label = "CollectionsPattern"    

  node [ color = "#0000ff" ]

DDI4_MemberRelation [
  label = "{<id>DDI_MemberRelation}"

  tooltip = "CollectionsPattern:MemberRelation"

href = "../Package/CollectionsPattern/MemberRelation/index.html"
]

}

subgraph Representations {
label = "Representations"    

  node [ color = "#0000ff" ]

DDI4_ClassificationItem [
  label = "{<id>DDI_ClassificationItem}"

  tooltip = "Representations:ClassificationItem"

href = "../Package/Representations/ClassificationItem/index.html"
]

}

DDI4_ClassificationItemRelation -> DDI4_ [arrowhead=onormal color="#000000"];

  DDI4_ClassificationItemRelation:ClassificationItemRelation_realizes_association -> DDI4_MemberRelation [ arrowhead=none arrowtail=none  edgetooltip="realizes" fontcolor="black" color="#00000"];

  DDI4_ClassificationItemRelation:ClassificationItemRelation_source_association -> DDI4_ClassificationItem [ arrowhead=none arrowtail=diamond labeldistance=1.9 taillabel="0..n" headlabel="1..1" edgetooltip="source" fontcolor="black" color="#00000"];

  DDI4_ClassificationItemRelation:ClassificationItemRelation_target_association -> DDI4_ClassificationItem [ arrowhead=none arrowtail=odiamond labeldistance=1.9 taillabel="0..n" headlabel="0..n" edgetooltip="target" fontcolor="black" color="#00000"];

}