digraph G {
fontname = "Bitstream Vera Sans"
fontsize = 8

overlap=false;

compound=true;    

node [
  fontname = "Bitstream Vera Sans"
  fontsize = 8
  shape = "record"
]

edge [
  fontname = "Bitstream Vera Sans"
  fontsize = 8
  mode="ipsep"            
]


DDI4_CodeIndicator [
  label = "{<id>CodeIndicator | + index :  \l + isInLevel :  \l \l \l| <CodeIndicator_member_association> member \l| <CodeIndicator_realizes_association> realizes \l \l}"

  tooltip = "StructuredDataTypes:CodeIndicator"


]

subgraph CollectionsPattern {
label = "CollectionsPattern"    

  node [ color = "#0000ff" ]

DDI4_MemberIndicator [
  label = "{<id>DDI_MemberIndicator}"

  tooltip = "CollectionsPattern:MemberIndicator"

href = "../Package/CollectionsPattern/MemberIndicator/index.html"
]

}

subgraph Representations {
label = "Representations"    

  node [ color = "#0000ff" ]

DDI4_Code [
  label = "{<id>DDI_Code}"

  tooltip = "Representations:Code"

href = "../Package/Representations/Code/index.html"
]

}

DDI4_CodeIndicator -> DDI4_ [arrowhead=onormal color="#000000"];

  DDI4_CodeIndicator:CodeIndicator_member_association -> DDI4_Code [ arrowhead=none arrowtail=diamond labeldistance=1.9 taillabel="0..n" headlabel="1..1" edgetooltip="member" fontcolor="black" color="#00000"];

  DDI4_CodeIndicator:CodeIndicator_realizes_association -> DDI4_MemberIndicator [ arrowhead=none arrowtail=none  edgetooltip="realizes" fontcolor="black" color="#00000"];

}