digraph G {
fontname = "Bitstream Vera Sans"
fontsize = 8

overlap=false;

compound=true;    

node [
  fontname = "Bitstream Vera Sans"
  fontsize = 8
  shape = "record"
]

edge [
  fontname = "Bitstream Vera Sans"
  fontsize = 8
  mode="ipsep"            
]


DDI4_CommandCode [
  label = "{<id>CommandCode | + description : InternationalStructuredString \l + usesCommandFile : CommandFile \l + usesCommand : Command \l \l \l| \l \l}"

  tooltip = "StructuredDataTypes:CommandCode"


]

DDI4_CommandCode -> DDI4_ [arrowhead=onormal color="#000000"];

}