digraph G {
fontname = "Bitstream Vera Sans"
fontsize = 8

overlap=false;

compound=true;    

node [
  fontname = "Bitstream Vera Sans"
  fontsize = 8
  shape = "record"
]

edge [
  fontname = "Bitstream Vera Sans"
  fontsize = 8
  mode="ipsep"            
]


DDI4_DataPointRelation [
  label = "{<id>DataPointRelation | + hasRelationSpecification : RelationSpecification \l + semantic : ExternalControlledVocabularyEntry \l + totality : TotalityType \l \l \l| <DataPointRelation_source_association> source \l| <DataPointRelation_target_association> target \l| <DataPointRelation_realizes_association> realizes \l \l}"

  tooltip = "StructuredDataTypes:DataPointRelation"


]

subgraph CollectionsPattern {
label = "CollectionsPattern"    

  node [ color = "#0000ff" ]

DDI4_MemberRelation [
  label = "{<id>DDI_MemberRelation}"

  tooltip = "CollectionsPattern:MemberRelation"

href = "../Package/CollectionsPattern/MemberRelation/index.html"
]

}

subgraph LogicalDataDescription {
label = "LogicalDataDescription"    

  node [ color = "#0000ff" ]

DDI4_DataPoint [
  label = "{<id>DDI_DataPoint}"

  tooltip = "LogicalDataDescription:DataPoint"

href = "../Package/LogicalDataDescription/DataPoint/index.html"
]

}

DDI4_DataPointRelation -> DDI4_ [arrowhead=onormal color="#000000"];

  DDI4_DataPointRelation:DataPointRelation_source_association -> DDI4_DataPoint [ arrowhead=none arrowtail=odiamond labeldistance=1.9 taillabel="0..n" headlabel="0..n" edgetooltip="source" fontcolor="black" color="#00000"];

  DDI4_DataPointRelation:DataPointRelation_target_association -> DDI4_DataPoint [ arrowhead=none arrowtail=odiamond labeldistance=1.9 taillabel="0..n" headlabel="0..n" edgetooltip="target" fontcolor="black" color="#00000"];

  DDI4_DataPointRelation:DataPointRelation_realizes_association -> DDI4_MemberRelation [ arrowhead=none arrowtail=none  edgetooltip="realizes" fontcolor="black" color="#00000"];

}