digraph G {
fontname = "Bitstream Vera Sans"
fontsize = 8

overlap=false;

compound=true;    

node [
  fontname = "Bitstream Vera Sans"
  fontsize = 8
  shape = "record"
]

edge [
  fontname = "Bitstream Vera Sans"
  fontsize = 8
  mode="ipsep"            
]


DDI4_DataPointIndicator [
  label = "{<id>DataPointIndicator | + index :  \l \l \l| <DataPointIndicator_member_association> member \l| <DataPointIndicator_realizes_association> realizes \l \l}"

  tooltip = "StructuredDataTypes:DataPointIndicator"


]

subgraph CollectionsPattern {
label = "CollectionsPattern"    

  node [ color = "#0000ff" ]

DDI4_MemberIndicator [
  label = "{<id>DDI_MemberIndicator}"

  tooltip = "CollectionsPattern:MemberIndicator"

href = "../Package/CollectionsPattern/MemberIndicator/index.html"
]

}

subgraph LogicalDataDescription {
label = "LogicalDataDescription"    

  node [ color = "#0000ff" ]

DDI4_DataPoint [
  label = "{<id>DDI_DataPoint}"

  tooltip = "LogicalDataDescription:DataPoint"

href = "../Package/LogicalDataDescription/DataPoint/index.html"
]

}

DDI4_DataPointIndicator -> DDI4_ [arrowhead=onormal color="#000000"];

  DDI4_DataPointIndicator:DataPointIndicator_member_association -> DDI4_DataPoint [ arrowhead=none arrowtail=diamond labeldistance=1.9 taillabel="0..n" headlabel="1..1" edgetooltip="member" fontcolor="black" color="#00000"];

  DDI4_DataPointIndicator:DataPointIndicator_realizes_association -> DDI4_MemberIndicator [ arrowhead=none arrowtail=none  edgetooltip="realizes" fontcolor="black" color="#00000"];

}