digraph G {
fontname = "Bitstream Vera Sans"
fontsize = 8

overlap=false;

compound=true;    

node [
  fontname = "Bitstream Vera Sans"
  fontsize = 8
  shape = "record"
]

edge [
  fontname = "Bitstream Vera Sans"
  fontsize = 8
  mode="ipsep"            
]


DDI4_DynamicText [
  label = "{<id>DynamicText | + textContent : DynamicTextContent \l + isStructureRequired :  \l + audienceLanguage :  \l \l \l| \l \l}"

  tooltip = "StructuredDataTypes:DynamicText"


]

DDI4_DynamicText -> DDI4_ [arrowhead=onormal color="#000000"];

}