digraph G {
fontname = "Bitstream Vera Sans"
fontsize = 8

overlap=false;

compound=true;    

node [
  fontname = "Bitstream Vera Sans"
  fontsize = 8
  shape = "record"
]

edge [
  fontname = "Bitstream Vera Sans"
  fontsize = 8
  mode="ipsep"            
]


DDI4_ImageArea [
  label = "{<id>ImageArea | + content :  \l + shape : ShapeCoded \l \l \l| \l \l}"

  tooltip = "StructuredDataTypes:ImageArea"


]

DDI4_ImageArea -> DDI4_ [arrowhead=onormal color="#000000"];

}