digraph G {
fontname = "Bitstream Vera Sans"
fontsize = 8

overlap=false;

compound=true;    

node [
  fontname = "Bitstream Vera Sans"
  fontsize = 8
  shape = "record"
]

edge [
  fontname = "Bitstream Vera Sans"
  fontsize = 8
  mode="ipsep"            
]


DDI4_LocalIdFormat [
  label = "{<id>LocalIdFormat | + localIdValue :  \l + localIdType :  \l + localIdVersion :  \l \l \l| \l \l}"

  tooltip = "StructuredDataTypes:LocalIdFormat"


]

DDI4_LocalIdFormat -> DDI4_ [arrowhead=onormal color="#000000"];

}