digraph G {
fontname = "Bitstream Vera Sans"
fontsize = 8

overlap=false;

compound=true;    

node [
  fontname = "Bitstream Vera Sans"
  fontsize = 8
  shape = "record"
]

edge [
  fontname = "Bitstream Vera Sans"
  fontsize = 8
  mode="ipsep"            
]


DDI4_ObjectName [
  label = "{<id>ObjectName | + content :  \l + context : ExternalControlledVocabularyEntry \l \l \l| \l \l}"

  tooltip = "StructuredDataTypes:ObjectName"


]

DDI4_ObjectName -> DDI4_ [arrowhead=onormal color="#000000"];

}