digraph G {
fontname = "Bitstream Vera Sans"
fontsize = 8

overlap=false;

compound=true;    

node [
  fontname = "Bitstream Vera Sans"
  fontsize = 8
  shape = "record"
]

edge [
  fontname = "Bitstream Vera Sans"
  fontsize = 8
  mode="ipsep"            
]


DDI4_PhysicalRecordSegmentIndicator [
  label = "{<id>PhysicalRecordSegmentIndicator | + index :  \l \l \l| <PhysicalRecordSegmentIndicator_member_association> member \l| <PhysicalRecordSegmentIndicator_realizes_association> realizes \l \l}"

  tooltip = "StructuredDataTypes:PhysicalRecordSegmentIndicator"


]

subgraph FormatDescription {
label = "FormatDescription"    

  node [ color = "#0000ff" ]

DDI4_PhysicalRecordSegment [
  label = "{<id>DDI_PhysicalRecordSegment}"

  tooltip = "FormatDescription:PhysicalRecordSegment"

href = "../Package/FormatDescription/PhysicalRecordSegment/index.html"
]

}

subgraph CollectionsPattern {
label = "CollectionsPattern"    

  node [ color = "#0000ff" ]

DDI4_MemberIndicator [
  label = "{<id>DDI_MemberIndicator}"

  tooltip = "CollectionsPattern:MemberIndicator"

href = "../Package/CollectionsPattern/MemberIndicator/index.html"
]

}

DDI4_PhysicalRecordSegmentIndicator -> DDI4_ [arrowhead=onormal color="#000000"];

  DDI4_PhysicalRecordSegmentIndicator:PhysicalRecordSegmentIndicator_member_association -> DDI4_PhysicalRecordSegment [ arrowhead=none arrowtail=diamond labeldistance=1.9 taillabel="0..n" headlabel="1..1" edgetooltip="member" fontcolor="black" color="#00000"];

  DDI4_PhysicalRecordSegmentIndicator:PhysicalRecordSegmentIndicator_realizes_association -> DDI4_MemberIndicator [ arrowhead=none arrowtail=none  edgetooltip="realizes" fontcolor="black" color="#00000"];

}