digraph G {
fontname = "Bitstream Vera Sans"
fontsize = 8

overlap=false;

compound=true;    

node [
  fontname = "Bitstream Vera Sans"
  fontsize = 8
  shape = "record"
]

edge [
  fontname = "Bitstream Vera Sans"
  fontsize = 8
  mode="ipsep"            
]


DDI4_ResourceIdentifier [
  label = "{<id>ResourceIdentifier | + typeOfRelatedResource : ExternalControlledVocabularyEntry \l \l \l| \l \l}"

  tooltip = "StructuredDataTypes:ResourceIdentifier"


]

subgraph StructuredDataTypes {
label = "StructuredDataTypes"    

  node [ color = "#0000ff" ]

DDI4_InternationalIdentifier [
  label = "{<id>DDI_InternationalIdentifier}"

  tooltip = "StructuredDataTypes:InternationalIdentifier"

href = "../Package/StructuredDataTypes/InternationalIdentifier/index.html"
]

}

DDI4_ResourceIdentifier -> DDI4_InternationalIdentifier [arrowhead=onormal color="#000000"];

}