digraph G {
fontname = "Bitstream Vera Sans"
fontsize = 8

overlap=false;

compound=true;    

node [
  fontname = "Bitstream Vera Sans"
  fontsize = 8
  shape = "record"
]

edge [
  fontname = "Bitstream Vera Sans"
  fontsize = 8
  mode="ipsep"            
]


DDI4_Segment [
  label = "{<id>Segment | + usesAudioSegment : AudioSegment \l + usesVideoSegment : VideoSegment \l + xml :  \l + useseTextualSegment : TextualSegment \l + usesImageArea : ImageArea \l \l \l| \l \l}"

  tooltip = "StructuredDataTypes:Segment"


]

DDI4_Segment -> DDI4_ [arrowhead=onormal color="#000000"];

}