digraph G {
fontname = "Bitstream Vera Sans"
fontsize = 8

overlap=false;

compound=true;    

node [
  fontname = "Bitstream Vera Sans"
  fontsize = 8
  shape = "record"
]

edge [
  fontname = "Bitstream Vera Sans"
  fontsize = 8
  mode="ipsep"            
]


DDI4_AnnotatedIdentifiable [
  label = "{<id>AnnotatedIdentifiable | + hasAnnotation : Annotation \l \l \l| <AnnotatedIdentifiable_relatedMaterial_association> relatedMaterial \l \l}"

  tooltip = "Identification:AnnotatedIdentifiable"


]

subgraph Utility {
label = "Utility"    

  node [ color = "#0000ff" ]

DDI4_ExternalMaterial [
  label = "{<id>DDI_ExternalMaterial}"

  tooltip = "Utility:ExternalMaterial"

href = "../Package/Utility/ExternalMaterial/index.html"
]

}

subgraph Identification {
label = "Identification"    

  node [ color = "#0000ff" ]

DDI4_Identifiable [
  label = "{<id>DDI_Identifiable}"

  tooltip = "Identification:Identifiable"

href = "../Package/Identification/Identifiable/index.html"
]

}

DDI4_AnnotatedIdentifiable -> DDI4_Identifiable [arrowhead=onormal color="#000000"];

  DDI4_AnnotatedIdentifiable:AnnotatedIdentifiable_relatedMaterial_association -> DDI4_ExternalMaterial [ arrowhead=none arrowtail=odiamond labeldistance=1.9 taillabel="0..n" headlabel="0..n" edgetooltip="relatedMaterial" fontcolor="black" color="#00000"];

}